﻿{
  "Id": "pageviewsPerPage",
  "Title": "Top Viewed Pages",
  "Dimension": [ "pagePath" ],
  "Metrics": [ "screenPageViews", "bounceRate" ],
  "SortBy": {
    "Field": "screenPageViews",
    "SortOrder": "DESC"
  },
  "Columns": [
    {
      "Name": "Page",
      "Type": "string",
      "Width": 70
    },
    {
      "Name": "Pageviews",
      "Type": "integer",
      "Width": 15
    },
    {
      "Name": "% Bounce",
      "Type": "percent",
      "Width": 15
    }
  ]
}