﻿{
  "Id": "exitPages",
  "Title": "Engagement Duration",
  "Dimension": [ "pagePath" ],
  "Metrics": [ "userEngagementDuration", "screenPageViews" ],
  "SortBy": {
    "Field": "userEngagementDuration",
    "SortOrder": "DESC"
  },
  "Columns": [
    {
      "Name": "Page",
      "Type": "string",
      "Width": 70
    },
    {
      "Name": "Engagement Duration",
      "Type": "integer",
      "Width": 15
    },
    {
      "Name": "Page Views",
      "Type": "integer",
      "Width": 15
    }
  ]
}