﻿{
  "Id": "pageViewsByCountry",
  "Title": "Page Views by Region/State",
  "Dimension": [ "region" ],
  "Metrics": [ "screenPageViews" ],
  "Filter": "country!=(not set)",
  "SortBy": {
    "Field": "screenPageViews",
    "SortOrder": "DESC"
  },
  "PageSize":  5,
  "Columns": [
    {
      "Name": "Region",
      "Type": "string",
      "Width": 70
    },
    {
      "Name": "Page Views",
      "Type": "integer",
      "Width": 15
    }
  ]
}