﻿{
  "Id": "visitorsByLanguage",
  "Title": "Visitors by Language",
  "Dimension": [ "language" ],
  "Metrics": [ "totalUsers" ],
  "Filter": "language!=Other;language!=(not set)",
  "SortBy": {
    "Field": "totalUsers",
    "SortOrder": "DESC"
  },
 "Links": [
    {
      "title": "Full Report",
      "url": "/InsightsAdmin/standard-reports/language"
    }
  ],
  "PageSize": 5,
  "Columns": [
    {
      "Name": "Language",
      "Type": "string",
      "Width": 70
    },
    {
      "Name": "Visitors",
      "Type": "integer",
      "Width": 15
    }
  ]
}