﻿[
  {
    "Key": "sessions",
    "Value": "Total number of Sessions within the date range. A session is the period time a user is actively engaged with your website."
  },
  {
    "Key": "sessionsPerUser",
    "Value": "The average number of sessions per user (Sessions divided by Active Users)."
  },
  {
    "Key": "screenPageViewsPerSession",
    "Value": "Pages/Session (Average Page Depth) is the average number of pages viewed during a session. Repeated views of a single page are counted."
  },
  {
    "Key": "screenPageViews",
    "Value": "Pageviews is the total number of pages viewed. Repeated views of a single page are counted."
  },
  {
    "Key": "uniquePageViews",
    "Value": "Unique Pageviews is the number of sessions during which the specified page was viewed at least once. A unique pageview is counted for each page URL + page Title combination."
  },
  {
    "Key": "averageTimeOnPage",
    "Value": "The average amount of time users spent viewing a specified page or screen, or set of pages or screens."
  },
  {
    "Key": "averageSessionDuration",
    "Value": "The average duration of users' sessions."
  },
  {
    "Key": "engagedSessions",
    "Value": "The number of sessions that lasted longer than 10 seconds, or had a conversion event, or had 2 or more screen views."
  },
  {
    "Key": "engagementRate",
    "Value": "The number of sessions that lasted longer than 10 seconds, or had a conversion event, or had 2 or more screen views."
  },
  {
    "Key": "entrances",
    "Value": "Entrances is the number of times visitors entered your site through a specified page or set of pages."
  },
  {
    "Key": "bounceRate",
    "Value": "The percentage of single-page sessions in which there was no interaction with the page. A bounced session has a duration of 0 seconds."
  },
  {
    "Key": "exitRate",
    "Value": "%Exit is (number of exits) / (number of pageviews) for the page or set of pages. It indicates how often users exit from that page or set of pages when they view the page(s)."
  },
  {
    "Key": "source",
    "Value": "The sources which referred traffic. Includes sources identified via utm_source."
  },
  {
    "Key": "averageSessionDuration",
    "Value": "The average length of a Session."
  },
  {
    "Key": "newVsReturning",
    "Value": "An estimate of the percentage of new session vs returning visits."
  },
  {
    "Key": "landingPagePath",
    "Value": "The URL/content that was talked about in the social activity."
  },
  {
    "Key": "activeUsers",
    "Value": "Number of unique active visitors."
  },
  {
    "Key": "newUsers",
    "Value": "Number of unique new visitors."
  }
]