<?xml version="1.0" standalone="no"?>
<!DOCTYPE svg PUBLIC "-//W3C//DTD SVG 1.1//EN" "http://www.w3.org/Graphics/SVG/1.1/DTD/svg11.dtd">
<svg xmlns="http://www.w3.org/2000/svg">
<metadata>Copyright (C) 2019 by original authors @ fontello.com</metadata>
<defs>
<font id="iapps-fontello" horiz-adv-x="1000" >
<font-face font-family="iapps-fontello" font-weight="400" font-stretch="normal" units-per-em="1000" ascent="850" descent="-150" />
<missing-glyph horiz-adv-x="1000" />
<glyph glyph-name="chevron-circled-left" unicode="&#xe800;" d="M507 72l57 57q11 10 11 25t-11 25l-171 171 171 171q11 11 11 25t-11 26l-57 57q-10 10-25 10t-25-10l-253-254q-11-10-11-25t11-25l253-253q11-11 25-11t25 11z m350 278q0-117-57-215t-156-156-215-58-216 58-155 156-58 215 58 215 155 156 216 58 215-58 156-156 57-215z" horiz-adv-x="857.1" />

<glyph glyph-name="chevron-circled-right" unicode="&#xe801;" d="M400 72l254 253q10 11 10 25t-10 25l-254 254q-10 10-25 10t-25-10l-57-57q-11-11-11-26t11-25l171-171-171-171q-11-11-11-25t11-25l57-57q11-11 25-11t25 11z m457 278q0-117-57-215t-156-156-215-58-216 58-155 156-58 215 58 215 155 156 216 58 215-58 156-156 57-215z" horiz-adv-x="857.1" />

<glyph glyph-name="chevron-circled-up" unicode="&#xe802;" d="M650 214l57 57q11 11 11 25t-11 26l-253 253q-11 11-25 11t-25-11l-254-253q-10-11-10-26t10-25l57-57q11-10 25-10t25 10l172 172 171-172q11-10 25-10t25 10z m207 136q0-117-57-215t-156-156-215-58-216 58-155 156-58 215 58 215 155 156 216 58 215-58 156-156 57-215z" horiz-adv-x="857.1" />

<glyph glyph-name="chevron-circled-down" unicode="&#xe803;" d="M454 125l253 254q11 10 11 25t-11 25l-57 57q-10 10-25 10t-25-10l-171-172-172 172q-10 10-25 10t-25-10l-57-57q-10-11-10-25t10-25l254-254q10-10 25-10t25 10z m403 225q0-117-57-215t-156-156-215-58-216 58-155 156-58 215 58 215 155 156 216 58 215-58 156-156 57-215z" horiz-adv-x="857.1" />

<glyph glyph-name="arrow-circled-left" unicode="&#xe804;" d="M714 314v72q0 14-10 25t-25 10h-281l106 106q11 11 11 25t-11 25l-51 51q-10 10-25 10t-25-10l-202-202-51-51q-10-10-10-25t10-25l51-51 202-202q10-10 25-10t25 10l51 51q10 10 10 25t-10 25l-106 106h281q14 0 25 10t10 25z m143 36q0-117-57-215t-156-156-215-58-216 58-155 156-58 215 58 215 155 156 216 58 215-58 156-156 57-215z" horiz-adv-x="857.1" />

<glyph glyph-name="arrow-circled-right" unicode="&#xe805;" d="M717 350q0 15-10 25l-51 51-202 202q-10 10-25 10t-25-10l-51-51q-10-10-10-25t10-25l106-106h-280q-15 0-25-10t-11-25v-72q0-14 11-25t25-10h280l-106-106q-10-10-10-25t10-25l51-51q10-10 25-10t25 10l202 202 51 51q10 10 10 25z m140 0q0-117-57-215t-156-156-215-58-216 58-155 156-58 215 58 215 155 156 216 58 215-58 156-156 57-215z" horiz-adv-x="857.1" />

<glyph glyph-name="arrow-circled-up" unicode="&#xe806;" d="M717 351q0 15-10 25l-202 202-51 51q-10 10-25 10t-25-10l-51-51-202-202q-10-10-10-25t10-26l51-50q10-10 25-10t25 10l105 105v-280q0-14 11-25t25-11h71q15 0 25 11t11 25v280l106-105q10-11 25-11t25 11l51 50q10 11 10 26z m140-1q0-117-57-215t-156-156-215-58-216 58-155 156-58 215 58 215 155 156 216 58 215-58 156-156 57-215z" horiz-adv-x="857.1" />

<glyph glyph-name="arrow-circled-down" unicode="&#xe807;" d="M717 349q0 16-10 26l-51 50q-10 10-25 10t-25-10l-106-105v280q0 15-11 25t-25 11h-71q-15 0-25-11t-11-25v-280l-105 105q-11 11-25 11t-25-11l-51-50q-10-10-10-26t10-25l202-202 51-50q10-10 25-10t25 10l51 50 202 202q10 10 10 25z m140 1q0-117-57-215t-156-156-215-58-216 58-155 156-58 215 58 215 155 156 216 58 215-58 156-156 57-215z" horiz-adv-x="857.1" />

<glyph glyph-name="calendar" unicode="&#xe808;" d="M71-79h161v161h-161v-161z m197 0h178v161h-178v-161z m-197 197h161v178h-161v-178z m197 0h178v178h-178v-178z m-197 214h161v161h-161v-161z m411-411h179v161h-179v-161z m-214 411h178v161h-178v-161z m428-411h161v161h-161v-161z m-214 197h179v178h-179v-178z m-196 482v161q0 7-6 12t-12 6h-36q-7 0-12-6t-6-12v-161q0-7 6-13t12-5h36q7 0 12 5t6 13z m410-482h161v178h-161v-178z m-214 214h179v161h-179v-161z m214 0h161v161h-161v-161z m18 268v161q0 7-5 12t-13 6h-35q-7 0-13-6t-5-12v-161q0-7 5-13t13-5h35q8 0 13 5t5 13z m215 36v-715q0-29-22-50t-50-21h-786q-29 0-50 21t-21 50v715q0 29 21 50t50 21h72v54q0 37 26 63t63 26h36q37 0 63-26t26-63v-54h214v54q0 37 27 63t63 26h35q37 0 64-26t26-63v-54h71q29 0 50-21t22-50z" horiz-adv-x="928.6" />

<glyph glyph-name="list" unicode="&#xe809;" d="M143 118v-107q0-7-5-13t-13-5h-107q-7 0-13 5t-5 13v107q0 7 5 12t13 6h107q7 0 13-6t5-12z m0 214v-107q0-7-5-13t-13-5h-107q-7 0-13 5t-5 13v107q0 7 5 13t13 5h107q7 0 13-5t5-13z m0 214v-107q0-7-5-12t-13-6h-107q-7 0-13 6t-5 12v107q0 8 5 13t13 5h107q7 0 13-5t5-13z m857-428v-107q0-7-5-13t-13-5h-750q-7 0-12 5t-6 13v107q0 7 6 12t12 6h750q7 0 13-6t5-12z m-857 643v-107q0-8-5-13t-13-5h-107q-7 0-13 5t-5 13v107q0 7 5 12t13 6h107q7 0 13-6t5-12z m857-429v-107q0-7-5-13t-13-5h-750q-7 0-12 5t-6 13v107q0 7 6 13t12 5h750q7 0 13-5t5-13z m0 214v-107q0-7-5-12t-13-6h-750q-7 0-12 6t-6 12v107q0 8 6 13t12 5h750q7 0 13-5t5-13z m0 215v-107q0-8-5-13t-13-5h-750q-7 0-12 5t-6 13v107q0 7 6 12t12 6h750q7 0 13-6t5-12z" horiz-adv-x="1000" />

<glyph glyph-name="check" unicode="&#xe80a;" d="M786 331v-177q0-67-47-114t-114-47h-464q-67 0-114 47t-47 114v464q0 66 47 113t114 48h464q35 0 65-14 9-4 10-13 2-10-5-16l-27-28q-6-5-13-5-1 0-5 1-13 3-25 3h-464q-37 0-63-26t-27-63v-464q0-37 27-63t63-27h464q37 0 63 27t26 63v141q0 8 5 13l36 35q6 6 13 6 3 0 7-2 11-4 11-16z m129 273l-455-454q-13-14-31-14t-32 14l-240 240q-14 13-14 31t14 32l61 62q14 13 32 13t32-13l147-147 361 361q13 13 31 13t32-13l62-61q13-14 13-32t-13-32z" horiz-adv-x="928.6" />

<glyph glyph-name="check-empty" unicode="&#xe80b;" d="M625 707h-464q-37 0-63-26t-27-63v-464q0-37 27-63t63-27h464q37 0 63 27t26 63v464q0 37-26 63t-63 26z m161-89v-464q0-67-47-114t-114-47h-464q-67 0-114 47t-47 114v464q0 66 47 113t114 48h464q66 0 114-48t47-113z" horiz-adv-x="785.7" />

<glyph glyph-name="circled" unicode="&#xe80c;" d="M857 350q0-117-57-215t-156-156-215-58-216 58-155 156-58 215 58 215 155 156 216 58 215-58 156-156 57-215z" horiz-adv-x="857.1" />

<glyph glyph-name="ok-circled" unicode="&#xe80d;" d="M717 440q0 16-10 26l-51 50q-11 11-25 11t-25-11l-228-227-126 126q-11 11-25 11t-25-11l-51-50q-10-10-10-26 0-15 10-25l202-202q10-10 25-10 15 0 26 10l303 303q10 10 10 25z m140-90q0-117-57-215t-156-156-215-58-216 58-155 156-58 215 58 215 155 156 216 58 215-58 156-156 57-215z" horiz-adv-x="857.1" />

<glyph glyph-name="circled-empty" unicode="&#xe80e;" d="M429 654q-83 0-153-41t-110-111-41-152 41-152 110-111 153-41 152 41 110 111 41 152-41 152-110 111-152 41z m428-304q0-117-57-215t-156-156-215-58-216 58-155 156-58 215 58 215 155 156 216 58 215-58 156-156 57-215z" horiz-adv-x="857.1" />

<glyph glyph-name="globe" unicode="&#xe80f;" d="M480 830q200 0 340-141t140-339q0-200-140-340t-340-140q-198 0-339 140t-141 340q0 198 141 339t339 141z m410-480q0 132-78 239t-202 149q-18-24-16-32 4-38 18-51t30-7l32 12t20 2q22-24 0-47t-45-56-1-77q34-64 96-64 28-2 43-36t17-66q10-80-14-140-22-44 14-76 86 112 86 250z m-466 404q-112-14-199-84t-127-174q6 0 22-2t28-3 26-4 24-8 12-13q4-12-14-45t-18-61q0-30 38-56t38-46q0-28 8-68t8-44q0-12 36-54t52-42q10 0 11 22t-2 54-3 40q0 32 14 74 12 42 59 70t55 46q16 34 9 61t-17 43-34 28-41 17-37 9-22 4q-16 6-42 7t-36-3-27 11-17 29q0 10 15 27t35 37 28 30q8 14 17 21t22 16 27 21q4 4 25 17t27 23z m-72-794q66-20 128-20 128 0 226 68-26 44-118 34-24-2-65-17t-47-17q-74-16-76-16-12-2-26-14t-22-18z" horiz-adv-x="960" />

<glyph glyph-name="pencil" unicode="&#xe810;" d="M203-7l50 51-131 131-51-51v-60h72v-71h60z m291 518q0 12-12 12-5 0-9-4l-303-302q-4-4-4-10 0-12 13-12 5 0 9 4l303 302q3 4 3 10z m-30 107l232-232-464-465h-232v233z m381-54q0-29-20-50l-93-93-232 233 93 92q20 21 50 21 29 0 51-21l131-131q20-22 20-51z" horiz-adv-x="857.1" />

<glyph glyph-name="chart-line" unicode="&#xe811;" d="M1143-7v-72h-1143v858h71v-786h1072z m-72 696v-242q0-12-10-17t-20 4l-68 68-353-353q-6-6-13-6t-13 6l-130 130-232-233-107 108 327 326q5 6 12 6t13-6l130-130 259 259-67 68q-9 8-5 19t17 11h243q7 0 12-5t5-13z" horiz-adv-x="1142.9" />

<glyph glyph-name="layout" unicode="&#xe812;" d="M393 100v571q0 8-5 13t-13 5h-268q-8 0-13-5t-5-13v-571q0-8 5-13t13-5h268q8 0 13 5t5 13z m375 214v357q0 8-5 13t-13 5h-268q-8 0-13-5t-5-13v-357q0-7 5-12t13-6h268q8 0 13 6t5 12z m89 429v-786q0-14-10-25t-26-11h-785q-15 0-25 11t-11 25v786q0 14 11 25t25 11h785q15 0 26-11t10-25z" horiz-adv-x="857.1" />

<glyph glyph-name="lock" unicode="&#xe813;" d="M179 421h285v108q0 59-42 101t-101 41-101-41-41-101v-108z m464-53v-322q0-22-16-37t-38-16h-535q-23 0-38 16t-16 37v322q0 22 16 38t38 15h17v108q0 102 74 176t176 74 177-74 73-176v-108h18q23 0 38-15t16-38z" horiz-adv-x="642.9" />

<glyph glyph-name="edit" unicode="&#xe814;" d="M496 189l64 65-85 85-64-65v-31h53v-54h32z m245 402q-9 9-18 0l-196-196q-9-9 0-18t18 0l196 196q9 9 0 18z m45-331v-106q0-67-47-114t-114-47h-464q-67 0-114 47t-47 114v464q0 66 47 113t114 48h464q35 0 65-14 9-4 10-13 2-10-5-16l-27-28q-8-8-18-4-13 3-25 3h-464q-37 0-63-26t-27-63v-464q0-37 27-63t63-27h464q37 0 63 27t26 63v70q0 7 5 12l36 36q8 8 20 4t11-16z m-54 411l161-160-375-375h-161v160z m248-73l-51-52-161 161 51 52q16 15 38 15t38-15l85-85q16-16 16-38t-16-38z" horiz-adv-x="1000" />

<glyph glyph-name="search" unicode="&#xe815;" d="M643 386q0 103-73 176t-177 74-177-74-73-176 73-177 177-73 177 73 73 177z m286-465q0-29-22-50t-50-21q-30 0-50 21l-191 191q-100-69-223-69-80 0-153 31t-125 84-84 125-31 153 31 152 84 126 125 84 153 31 153-31 125-84 84-126 31-152q0-123-69-223l191-191q21-21 21-51z" horiz-adv-x="928.6" />

<glyph glyph-name="cancel" unicode="&#xe816;" d="M724 112q0-22-15-38l-76-76q-16-15-38-15t-38 15l-164 165-164-165q-16-15-38-15t-38 15l-76 76q-16 16-16 38t16 38l164 164-164 164q-16 16-16 38t16 38l76 76q16 16 38 16t38-16l164-164 164 164q16 16 38 16t38-16l76-76q15-15 15-38t-15-38l-164-164 164-164q15-15 15-38z" horiz-adv-x="785.7" />

<glyph glyph-name="caret-left" unicode="&#xe817;" d="M357 600v-500q0-14-10-25t-26-11-25 11l-250 250q-10 11-10 25t10 25l250 250q11 11 25 11t26-11 10-25z" horiz-adv-x="357.1" />

<glyph glyph-name="caret-right" unicode="&#xe818;" d="M321 350q0-14-10-25l-250-250q-11-11-25-11t-25 11-11 25v500q0 15 11 25t25 11 25-11l250-250q10-10 10-25z" horiz-adv-x="357.1" />

<glyph glyph-name="picture" unicode="&#xe819;" d="M357 529q0-45-31-76t-76-32-76 32-31 76 31 76 76 31 76-31 31-76z m572-215v-250h-786v107l178 179 90-89 285 285z m53 393h-893q-7 0-12-5t-6-13v-678q0-7 6-13t12-5h893q7 0 13 5t5 13v678q0 8-5 13t-13 5z m89-18v-678q0-37-26-63t-63-27h-893q-36 0-63 27t-26 63v678q0 37 26 63t63 27h893q37 0 63-27t26-63z" horiz-adv-x="1071.4" />

<glyph glyph-name="info-circled" unicode="&#xe81a;" d="M571 82v89q0 8-5 13t-12 5h-54v286q0 8-5 13t-13 5h-178q-8 0-13-5t-5-13v-89q0-8 5-13t13-5h53v-179h-53q-8 0-13-5t-5-13v-89q0-8 5-13t13-5h250q7 0 12 5t5 13z m-71 500v89q0 8-5 13t-13 5h-107q-8 0-13-5t-5-13v-89q0-8 5-13t13-5h107q8 0 13 5t5 13z m357-232q0-117-57-215t-156-156-215-58-216 58-155 156-58 215 58 215 155 156 216 58 215-58 156-156 57-215z" horiz-adv-x="857.1" />

<glyph glyph-name="link" unicode="&#xe81b;" d="M813 171q0 23-16 38l-116 116q-16 16-38 16-24 0-40-18 1-1 10-10t12-12 9-11 7-14 2-15q0-23-16-38t-38-16q-8 0-15 2t-14 7-11 9-12 12-10 10q-19-17-19-40 0-23 16-38l115-116q15-15 38-15 22 0 38 15l82 81q16 16 16 37z m-393 394q0 22-15 38l-115 115q-16 16-38 16-22 0-38-15l-82-82q-16-15-16-37 0-22 16-38l116-116q15-15 38-15 23 0 40 17-2 2-11 11t-12 12-8 10-7 14-2 16q0 22 15 38t38 15q9 0 16-2t14-7 11-8 12-12 10-11q18 17 18 41z m500-394q0-66-48-113l-82-81q-46-47-113-47-68 0-114 48l-115 115q-46 47-46 114 0 68 49 116l-49 49q-48-49-116-49-67 0-114 47l-116 116q-47 47-47 114t47 113l82 82q47 46 114 46 67 0 114-47l115-116q46-46 46-113 0-69-49-117l49-49q48 49 116 49 67 0 114-47l116-116q47-47 47-114z" horiz-adv-x="928.6" />

<glyph glyph-name="attention" unicode="&#xe81c;" d="M571 83v106q0 8-5 13t-12 5h-108q-7 0-12-5t-5-13v-106q0-8 5-13t12-6h108q7 0 12 6t5 13z m-1 208l10 257q0 6-5 10-7 6-14 6h-122q-6 0-14-6-5-4-5-12l9-255q0-5 6-9t13-3h103q8 0 14 3t5 9z m-7 522l428-786q20-35-1-70-9-17-26-26t-35-10h-858q-18 0-35 10t-26 26q-21 35-1 70l429 786q9 17 26 27t36 10 36-10 27-27z" horiz-adv-x="1000" />

<glyph glyph-name="trash-empty" unicode="&#xe81d;" d="M286 439v-321q0-8-5-13t-13-5h-36q-8 0-13 5t-5 13v321q0 8 5 13t13 5h36q8 0 13-5t5-13z m143 0v-321q0-8-5-13t-13-5h-36q-8 0-13 5t-5 13v321q0 8 5 13t13 5h36q8 0 13-5t5-13z m142 0v-321q0-8-5-13t-12-5h-36q-8 0-13 5t-5 13v321q0 8 5 13t13 5h36q7 0 12-5t5-13z m72-404v529h-500v-529q0-12 4-22t8-15 6-5h464q2 0 6 5t8 15 4 22z m-375 601h250l-27 65q-4 5-9 6h-177q-6-1-10-6z m518-18v-36q0-8-5-13t-13-5h-54v-529q0-46-26-80t-63-34h-464q-37 0-63 33t-27 79v531h-53q-8 0-13 5t-5 13v36q0 8 5 13t13 5h172l39 93q9 21 31 35t44 15h178q23 0 44-15t30-35l39-93h173q8 0 13-5t5-13z" horiz-adv-x="785.7" />

<glyph glyph-name="attention-circled" unicode="&#xe81e;" d="M429 779q116 0 215-58t156-156 57-215-57-215-156-156-215-58-216 58-155 156-58 215 58 215 155 156 216 58z m71-696v106q0 8-5 13t-12 5h-107q-8 0-13-5t-6-13v-106q0-8 6-13t13-6h107q7 0 12 6t5 13z m-1 192l10 346q0 7-6 10-5 5-13 5h-123q-8 0-13-5-6-3-6-10l10-346q0-6 5-10t14-4h103q8 0 13 4t6 10z" horiz-adv-x="857.1" />

<glyph glyph-name="arrow-up" unicode="&#xe81f;" d="M899 308q0-28-21-50l-41-42q-22-21-51-21-30 0-50 21l-165 164v-393q0-29-20-47t-51-19h-71q-30 0-51 19t-21 47v393l-164-164q-20-21-50-21t-50 21l-42 42q-21 21-21 50 0 30 21 51l363 363q20 21 50 21 30 0 51-21l363-363q21-22 21-51z" horiz-adv-x="928.6" />

<glyph glyph-name="envelope" unicode="&#xe820;" d="M929 11v428q-18-20-39-36-149-115-238-189-28-24-46-37t-48-28-57-13h-2q-26 0-57 13t-48 28-46 37q-88 74-238 189-21 16-39 36v-428q0-7 6-13t12-5h822q7 0 12 5t6 13z m0 586v14t-1 7-1 7-3 5-5 4-8 2h-822q-7 0-12-6t-6-12q0-94 83-159 107-84 223-176 4-3 20-17t25-21 25-17 28-16 24-5h2q11 0 24 5t28 16 25 17 25 21 20 17q116 92 224 176 30 24 56 65t26 73z m71 21v-607q0-37-26-63t-63-27h-822q-36 0-63 27t-26 63v607q0 37 26 63t63 26h822q37 0 63-26t26-63z" horiz-adv-x="1000" />

<glyph glyph-name="eye" unicode="&#xe821;" d="M929 314q-85 132-213 197 34-58 34-125 0-103-73-177t-177-73-177 73-73 177q0 67 34 125-128-65-213-197 75-114 187-182t242-68 243 68 186 182z m-402 215q0 11-8 19t-19 7q-70 0-120-50t-50-119q0-11 8-19t19-8 19 8 8 19q0 48 34 82t82 34q11 0 19 8t8 19z m473-215q0-19-11-38-78-129-210-206t-279-77-279 77-210 206q-11 19-11 38t11 39q78 128 210 205t279 78 279-78 210-205q11-20 11-39z" horiz-adv-x="1000" />

<glyph glyph-name="download" unicode="&#xe822;" d="M714 100q0 15-10 25t-25 11-25-11-11-25 11-25 25-11 25 11 10 25z m143 0q0 15-10 25t-26 11-25-11-10-25 10-25 25-11 26 11 10 25z m72 125v-179q0-22-16-37t-38-16h-821q-23 0-38 16t-16 37v179q0 22 16 38t38 16h259l75-76q33-32 76-32t76 32l76 76h259q22 0 38-16t16-38z m-182 318q10-23-8-39l-250-250q-10-11-25-11t-25 11l-250 250q-17 16-8 39 10 21 33 21h143v250q0 15 11 25t25 11h143q14 0 25-11t10-25v-250h143q24 0 33-21z" horiz-adv-x="928.6" />

<glyph glyph-name="arrow-right" unicode="&#xe823;" d="M821 314q0-30-20-50l-363-364q-22-20-51-20-29 0-50 20l-42 42q-22 21-22 51t22 51l163 163h-393q-29 0-47 21t-18 51v71q0 30 18 51t47 20h393l-163 165q-22 20-22 50t22 50l42 42q21 21 50 21 29 0 51-21l363-363q20-20 20-51z" horiz-adv-x="857.1" />

<glyph glyph-name="ok" unicode="&#xe824;" d="M933 534q0-22-16-38l-404-404-76-76q-16-15-38-15t-38 15l-76 76-202 202q-15 16-15 38t15 38l76 76q16 16 38 16t38-16l164-165 366 367q16 16 38 16t38-16l76-76q16-15 16-38z" horiz-adv-x="1000" />

<glyph glyph-name="plus" unicode="&#xe825;" d="M786 439v-107q0-22-16-38t-38-15h-232v-233q0-22-16-37t-38-16h-107q-22 0-38 16t-15 37v233h-232q-23 0-38 15t-16 38v107q0 23 16 38t38 16h232v232q0 22 15 38t38 16h107q23 0 38-16t16-38v-232h232q23 0 38-16t16-38z" horiz-adv-x="785.7" />

<glyph glyph-name="clock" unicode="&#xe826;" d="M500 546v-250q0-7-5-12t-13-5h-178q-8 0-13 5t-5 12v36q0 8 5 13t13 5h125v196q0 8 5 13t12 5h36q8 0 13-5t5-13z m232-196q0 83-41 152t-110 111-152 41-153-41-110-111-41-152 41-152 110-111 153-41 152 41 110 111 41 152z m125 0q0-117-57-215t-156-156-215-58-216 58-155 156-58 215 58 215 155 156 216 58 215-58 156-156 57-215z" horiz-adv-x="857.1" />

<glyph glyph-name="cancel-circled" unicode="&#xe827;" d="M641 224q0 14-10 25l-101 101 101 101q10 11 10 25 0 15-10 26l-51 50q-10 11-25 11-15 0-25-11l-101-101-101 101q-11 11-25 11-16 0-26-11l-50-50q-11-11-11-26 0-14 11-25l101-101-101-101q-11-11-11-25 0-15 11-26l50-50q10-11 26-11 14 0 25 11l101 101 101-101q10-11 25-11 15 0 25 11l51 50q10 11 10 26z m216 126q0-117-57-215t-156-156-215-58-216 58-155 156-58 215 58 215 155 156 216 58 215-58 156-156 57-215z" horiz-adv-x="857.1" />

<glyph glyph-name="cog" unicode="&#xe828;" d="M571 350q0 59-41 101t-101 42-101-42-42-101 42-101 101-42 101 42 41 101z m286 61v-124q0-7-4-13t-11-7l-104-16q-10-30-21-51 19-27 59-77 6-6 6-13t-5-13q-15-21-55-61t-53-39q-7 0-14 5l-77 60q-25-13-51-21-9-76-16-104-4-16-20-16h-124q-8 0-14 5t-6 12l-16 103q-27 9-50 21l-79-60q-6-5-14-5-8 0-14 6-70 64-92 94-4 5-4 13 0 6 5 12 8 12 28 37t30 40q-15 28-23 55l-102 15q-7 1-11 7t-5 13v124q0 7 5 13t10 7l104 16q8 25 22 51-23 32-60 77-6 7-6 14 0 5 5 12 15 20 55 60t53 40q7 0 15-5l77-60q24 13 50 21 9 76 17 104 3 16 20 16h124q7 0 13-5t7-12l15-103q28-9 51-20l79 59q5 5 13 5 7 0 14-5 72-67 92-95 4-5 4-12 0-7-4-13-9-12-29-37t-30-40q15-28 23-54l102-16q7-1 12-7t4-13z" horiz-adv-x="857.1" />

<glyph glyph-name="arrow-down" unicode="&#xe829;" d="M899 386q0-30-21-50l-363-364q-22-21-51-21-29 0-50 21l-363 364q-21 20-21 50 0 29 21 51l41 41q22 21 51 21 29 0 50-21l164-164v393q0 29 21 50t51 22h71q29 0 50-22t21-50v-393l165 164q20 21 50 21 29 0 51-21l41-41q21-22 21-51z" horiz-adv-x="928.6" />

<glyph glyph-name="arrow-left" unicode="&#xe82a;" d="M857 350v-71q0-30-18-51t-47-21h-393l164-164q21-20 21-50t-21-50l-42-43q-21-20-51-20-29 0-50 20l-364 364q-20 21-20 50 0 29 20 51l364 363q21 21 50 21 29 0 51-21l42-41q21-22 21-51t-21-51l-164-164h393q29 0 47-20t18-51z" horiz-adv-x="857.1" />

<glyph glyph-name="folder-open" unicode="&#xe82b;" d="M1049 319q0-17-18-37l-187-221q-24-28-67-48t-81-20h-607q-19 0-33 7t-15 24q0 17 17 37l188 221q24 28 67 48t80 20h607q19 0 34-7t15-24z m-192 192v-90h-464q-53 0-110-26t-92-67l-188-221-2-3q0 2-1 7t0 7v536q0 51 37 88t88 37h179q51 0 88-37t37-88v-18h303q52 0 88-37t37-88z" horiz-adv-x="1071.4" />

<glyph glyph-name="caret-down" unicode="&#xe82c;" d="M571 457q0-14-10-25l-250-250q-11-11-25-11t-25 11l-250 250q-11 11-11 25t11 25 25 11h500q14 0 25-11t10-25z" horiz-adv-x="571.4" />

<glyph glyph-name="caret-up" unicode="&#xe82d;" d="M571 171q0-14-10-25t-25-10h-500q-15 0-25 10t-11 25 11 26l250 250q10 10 25 10t25-10l250-250q10-11 10-26z" horiz-adv-x="571.4" />

<glyph glyph-name="user" unicode="&#xe82e;" d="M714 69q0-60-35-104t-84-44h-476q-49 0-84 44t-35 104q0 48 5 90t17 85 33 73 52 50 76 19q73-72 174-72t175 72q42 0 75-19t52-50 33-73 18-85 4-90z m-143 495q0-88-62-151t-152-63-151 63-63 151 63 152 151 63 152-63 62-152z" horiz-adv-x="714.3" />

<glyph glyph-name="users" unicode="&#xe82f;" d="M331 350q-90-3-148-71h-75q-45 0-77 22t-31 66q0 197 69 197 4 0 25-11t54-24 66-12q38 0 75 13-3-21-3-37 0-78 45-143z m598-356q0-66-41-105t-108-39h-488q-68 0-108 39t-41 105q0 30 2 58t8 61 14 61 24 54 35 45 48 30 62 11q6 0 24-12t41-26 59-27 76-12 75 12 60 27 41 26 24 12q34 0 62-11t47-30 35-45 24-54 15-61 8-61 2-58z m-572 713q0-59-42-101t-101-42-101 42-42 101 42 101 101 42 101-42 42-101z m393-214q0-89-63-152t-151-62-152 62-63 152 63 151 152 63 151-63 63-151z m321-126q0-43-31-66t-77-22h-75q-57 68-147 71 45 65 45 143 0 16-3 37 37-13 74-13 33 0 67 12t54 24 24 11q69 0 69-197z m-71 340q0-59-42-101t-101-42-101 42-42 101 42 101 101 42 101-42 42-101z" horiz-adv-x="1071.4" />

<glyph glyph-name="star" unicode="&#xe830;" d="M929 489q0-12-15-27l-202-197 48-279q0-4 0-12 0-11-6-19t-17-9q-10 0-22 7l-251 132-250-132q-12-7-23-7-11 0-17 9t-6 19q0 4 1 12l48 279-203 197q-14 15-14 27 0 21 31 26l280 40 126 254q11 23 27 23t28-23l125-254 280-40q32-5 32-26z" horiz-adv-x="928.6" />

<glyph glyph-name="popup" unicode="&#xe831;" d="M700 750q42 0 71-29t29-71l0-400q0-40-29-70t-71-30l-400 0q-40 0-70 30t-30 70l0 402q0 40 29 69t71 29l400 0z m0-500l0 400-400 0 0-400 400 0z m-600 100l0-300 300 0 0-100-300 0q-40 0-70 30t-30 70l0 300 100 0z" horiz-adv-x="800" />

<glyph glyph-name="upload" unicode="&#xe832;" d="M714 29q0 14-10 25t-25 10-25-10-11-25 11-25 25-11 25 11 10 25z m143 0q0 14-10 25t-26 10-25-10-10-25 10-25 25-11 26 11 10 25z m72 125v-179q0-22-16-38t-38-16h-821q-23 0-38 16t-16 38v179q0 22 16 38t38 15h238q12-31 39-51t62-20h143q34 0 61 20t40 51h238q22 0 38-15t16-38z m-182 361q-9-22-33-22h-143v-250q0-15-10-25t-25-11h-143q-15 0-25 11t-11 25v250h-143q-23 0-33 22-9 22 8 39l250 250q10 10 25 10t25-10l250-250q18-17 8-39z" horiz-adv-x="928.6" />

<glyph glyph-name="tags" unicode="&#xe833;" d="M250 600q0 30-21 51t-50 20-51-20-21-51 21-50 51-21 50 21 21 50z m595-321q0-30-20-51l-274-274q-22-21-51-21-30 0-50 21l-399 399q-21 21-36 57t-15 65v232q0 29 21 50t50 22h233q29 0 65-15t57-36l399-399q20-21 20-50z m215 0q0-30-21-51l-274-274q-22-21-51-21-20 0-33 8t-29 25l262 262q21 21 21 51 0 29-21 50l-399 399q-21 21-57 36t-65 15h125q29 0 65-15t57-36l399-399q21-21 21-50z" horiz-adv-x="1071.4" />

<glyph glyph-name="cog-alt" unicode="&#xe834;" d="M500 350q0 59-42 101t-101 42-101-42-42-101 42-101 101-42 101 42 42 101z m429-286q0 29-22 51t-50 21-50-21-21-51q0-29 21-50t50-21 51 21 21 50z m0 572q0 29-22 50t-50 21-50-21-21-50q0-30 21-51t50-21 51 21 21 51z m-215-235v-103q0-6-4-11t-8-6l-87-14q-6-19-18-42 19-27 50-64 4-6 4-11 0-7-4-11-12-17-46-50t-43-33q-7 0-12 4l-64 50q-21-11-43-17-6-60-13-87-4-13-17-13h-104q-6 0-11 4t-5 10l-13 85q-19 6-42 18l-66-50q-4-4-11-4-6 0-12 4-80 75-80 90 0 5 4 10 5 8 23 30t26 34q-13 24-20 46l-85 13q-5 1-9 5t-4 11v104q0 5 4 10t9 6l86 14q7 19 18 42-19 27-50 64-4 6-4 11 0 7 4 12 12 16 46 49t44 33q6 0 12-4l64-50q19 10 43 18 6 60 13 86 3 13 16 13h104q6 0 11-4t6-10l13-85q19-6 42-17l65 49q5 4 12 4 6 0 11-4 81-75 81-90 0-4-4-10-7-9-24-30t-25-34q13-27 19-46l85-12q6-2 9-6t4-11z m357-298v-78q0-9-83-17-6-15-16-29 28-63 28-77 0-2-2-4-68-40-69-40-5 0-26 27t-29 37q-11-1-17-1t-17 1q-7-11-29-37t-25-27q-1 0-69 40-3 2-3 4 0 14 29 77-10 14-17 29-83 8-83 17v78q0 9 83 18 7 16 17 29-29 63-29 77 0 2 3 4 2 1 19 11t33 19 17 9q4 0 25-26t29-38q12 1 17 1t17-1q28 40 51 63l4 1q2 0 69-39 2-2 2-4 0-14-28-77 9-13 16-29 83-9 83-18z m0 572v-78q0-9-83-18-6-15-16-29 28-63 28-77 0-2-2-4-68-39-69-39-5 0-26 26t-29 38q-11-1-17-1t-17 1q-7-12-29-38t-25-26q-1 0-69 39-3 2-3 4 0 14 29 77-10 14-17 29-83 9-83 18v78q0 9 83 17 7 16 17 29-29 63-29 77 0 2 3 4 2 1 19 11t33 19 17 9q4 0 25-26t29-37q12 1 17 1t17-1q28 39 51 62l4 1q2 0 69-39 2-2 2-4 0-14-28-77 9-13 16-29 83-8 83-17z" horiz-adv-x="1071.4" />

<glyph glyph-name="location" unicode="&#xe835;" d="M429 493q0 59-42 101t-101 42-101-42-42-101 42-101 101-42 101 42 42 101z m142 0q0-61-18-100l-203-432q-9-18-27-29t-37-11-38 11-26 29l-204 432q-18 39-18 100 0 118 84 202t202 84 202-84 83-202z" horiz-adv-x="571.4" />

<glyph glyph-name="block" unicode="&#xe836;" d="M732 352q0 90-48 164l-421-420q76-50 166-50 62 0 118 25t96 65 65 97 24 119z m-557-167l421 421q-75 50-167 50-83 0-153-40t-110-111-41-153q0-91 50-167z m682 167q0-88-34-168t-91-137-137-92-166-34-167 34-137 92-91 137-34 168 34 167 91 137 137 91 167 34 166-34 137-91 91-137 34-167z" horiz-adv-x="857.1" />

<glyph glyph-name="zoom-out" unicode="&#xe837;" d="M571 404v-36q0-7-5-13t-12-5h-322q-7 0-12 5t-6 13v36q0 7 6 12t12 5h322q7 0 12-5t5-12z m72-18q0 103-73 176t-177 74-177-74-73-176 73-177 177-73 177 73 73 177z m286-465q0-29-21-50t-51-21q-30 0-50 21l-191 191q-100-69-223-69-80 0-153 31t-125 84-84 125-31 153 31 152 84 126 125 84 153 31 153-31 125-84 84-126 31-152q0-123-69-223l191-191q21-21 21-51z" horiz-adv-x="928.6" />

<glyph glyph-name="zoom-in" unicode="&#xe838;" d="M571 404v-36q0-7-5-13t-12-5h-125v-125q0-7-6-13t-12-5h-36q-7 0-13 5t-5 13v125h-125q-7 0-12 5t-6 13v36q0 7 6 12t12 5h125v125q0 8 5 13t13 5h36q7 0 12-5t6-13v-125h125q7 0 12-5t5-12z m72-18q0 103-73 176t-177 74-177-74-73-176 73-177 177-73 177 73 73 177z m286-465q0-29-21-50t-51-21q-30 0-50 21l-191 191q-100-69-223-69-80 0-153 31t-125 84-84 125-31 153 31 152 84 126 125 84 153 31 153-31 125-84 84-126 31-152q0-123-69-223l191-191q21-21 21-51z" horiz-adv-x="928.6" />

<glyph glyph-name="eye-off" unicode="&#xe839;" d="M310 105l43 79q-48 35-76 88t-27 114q0 67 34 125-128-65-213-197 94-144 239-209z m217 424q0 11-8 19t-19 7q-70 0-120-50t-50-119q0-11 8-19t19-8 19 8 8 19q0 48 34 82t82 34q11 0 19 8t8 19z m202 106q0-4 0-5-59-105-176-316t-176-316l-28-50q-5-9-15-9-7 0-75 39-9 6-9 16 0 7 25 49-80 36-147 96t-117 137q-11 17-11 38t11 39q86 131 212 207t277 76q50 0 100-10l31 54q5 9 15 9 3 0 10-3t18-9 18-10 18-10 10-7q9-5 9-15z m21-249q0-78-44-142t-117-91l157 280q4-25 4-47z m250-72q0-19-11-38-22-36-61-81-84-96-194-149t-234-53l41 74q119 10 219 76t169 171q-65 100-158 164l35 63q53-36 102-85t81-103q11-19 11-39z" horiz-adv-x="1000" />

<glyph glyph-name="star-empty" unicode="&#xe83a;" d="M635 290l170 166-235 34-106 213-105-213-236-34 171-166-41-235 211 111 211-111z m294 199q0-12-15-27l-202-197 48-279q0-4 0-12 0-28-23-28-10 0-22 7l-251 132-250-132q-12-7-23-7-11 0-17 9t-6 19q0 4 1 12l48 279-203 197q-14 15-14 27 0 21 31 26l280 40 126 254q11 23 27 23t28-23l125-254 280-40q32-5 32-26z" horiz-adv-x="928.6" />

<glyph glyph-name="doc" unicode="&#xe83b;" d="M819 638q16-16 27-42t11-50v-642q0-23-15-38t-38-16h-750q-23 0-38 16t-16 38v892q0 23 16 38t38 16h500q22 0 49-11t42-27z m-248 136v-210h210q-5 17-12 23l-175 175q-6 7-23 12z m215-853v572h-232q-23 0-38 16t-16 37v233h-429v-858h715z" horiz-adv-x="857.1" />

<glyph glyph-name="folder" unicode="&#xe83c;" d="M929 511v-393q0-51-37-88t-88-37h-679q-51 0-88 37t-37 88v536q0 51 37 88t88 37h179q51 0 88-37t37-88v-18h375q51 0 88-37t37-88z" horiz-adv-x="928.6" />

<glyph glyph-name="home" unicode="&#xe83d;" d="M786 296v-267q0-15-11-25t-25-11h-214v214h-143v-214h-214q-15 0-25 11t-11 25v267q0 1 0 2t0 2l321 264 321-264q1-1 1-4z m124 39l-34-41q-5-5-12-6h-2q-7 0-12 3l-386 322-386-322q-7-4-13-3-7 1-12 6l-35 41q-4 6-3 13t6 12l401 334q18 15 42 15t43-15l136-113v108q0 8 5 13t13 5h107q8 0 13-5t5-13v-227l122-102q6-4 6-12t-4-13z" horiz-adv-x="928.6" />

<glyph glyph-name="plus-circled" unicode="&#xe83e;" d="M679 314v72q0 14-11 25t-25 10h-143v143q0 15-11 25t-25 11h-71q-15 0-25-11t-11-25v-143h-143q-14 0-25-10t-10-25v-72q0-14 10-25t25-10h143v-143q0-15 11-25t25-11h71q15 0 25 11t11 25v143h143q14 0 25 10t11 25z m178 36q0-117-57-215t-156-156-215-58-216 58-155 156-58 215 58 215 155 156 216 58 215-58 156-156 57-215z" horiz-adv-x="857.1" />

<glyph glyph-name="minus" unicode="&#xe83f;" d="M786 439v-107q0-22-16-38t-38-15h-678q-23 0-38 15t-16 38v107q0 23 16 38t38 16h678q23 0 38-16t16-38z" horiz-adv-x="785.7" />

<glyph glyph-name="minus-circled" unicode="&#xe840;" d="M679 314v72q0 14-11 25t-25 10h-429q-14 0-25-10t-10-25v-72q0-14 10-25t25-10h429q14 0 25 10t11 25z m178 36q0-117-57-215t-156-156-215-58-216 58-155 156-58 215 58 215 155 156 216 58 215-58 156-156 57-215z" horiz-adv-x="857.1" />

<glyph glyph-name="help-circled" unicode="&#xe841;" d="M500 82v107q0 8-5 13t-13 5h-107q-8 0-13-5t-5-13v-107q0-8 5-13t13-5h107q8 0 13 5t5 13z m143 375q0 49-31 91t-77 65-95 23q-136 0-207-119-9-13 4-24l74-55q4-4 10-4 9 0 14 7 30 38 48 51 19 14 48 14 27 0 48-15t21-33q0-21-11-34t-38-25q-35-15-65-48t-29-70v-20q0-8 5-13t13-5h107q8 0 13 5t5 13q0 10 12 27t30 28q18 10 28 16t25 19 25 27 16 34 7 45z m214-107q0-117-57-215t-156-156-215-58-216 58-155 156-58 215 58 215 155 156 216 58 215-58 156-156 57-215z" horiz-adv-x="857.1" />

<glyph glyph-name="list-alt" unicode="&#xe842;" d="M214 189v-35q0-8-5-13t-13-5h-35q-7 0-13 5t-5 13v35q0 8 5 13t13 5h35q8 0 13-5t5-13z m0 143v-36q0-7-5-12t-13-5h-35q-7 0-13 5t-5 12v36q0 7 5 13t13 5h35q8 0 13-5t5-13z m0 143v-36q0-7-5-12t-13-6h-35q-7 0-13 6t-5 12v36q0 7 5 13t13 5h35q8 0 13-5t5-13z m643-286v-35q0-8-5-13t-13-5h-535q-8 0-13 5t-5 13v35q0 8 5 13t13 5h535q8 0 13-5t5-13z m0 143v-36q0-7-5-12t-13-5h-535q-8 0-13 5t-5 12v36q0 7 5 13t13 5h535q8 0 13-5t5-13z m0 143v-36q0-7-5-12t-13-6h-535q-8 0-13 6t-5 12v36q0 7 5 13t13 5h535q8 0 13-5t5-13z m72-393v464q0 8-6 13t-12 5h-822q-7 0-12-5t-6-13v-464q0-7 6-12t12-6h822q7 0 12 6t6 12z m71 607v-607q0-37-26-63t-63-26h-822q-36 0-63 26t-26 63v607q0 37 26 63t63 27h822q37 0 63-27t26-63z" horiz-adv-x="1000" />

<glyph glyph-name="chart-bar" unicode="&#xe843;" d="M357 350v-286h-143v286h143z m214 286v-572h-142v572h142z m572-643v-72h-1143v858h71v-786h1072z m-357 500v-429h-143v429h143z m214 214v-643h-143v643h143z" horiz-adv-x="1142.9" />

<glyph glyph-name="publish" unicode="&#xe844;" d="M900 800q42 0 71-30t29-70l0-600q0-42-29-71t-71-29l-198 0 0 98 200 0 0 462-802 0 0-462 200 0 0-98-200 0q-40 0-70 29t-30 71l0 600q0 40 30 70t70 30l800 0z m-770-168q38 0 38 38 0 16-11 26t-27 10-27-11-11-25q0-16 11-27t27-11z m100 0q38 0 38 38 0 16-11 26t-27 10-27-11-11-25q0-16 11-27t27-11z m672 6l0 62-602 0 0-62 602 0z m-404-198l242-240-150 0 0-300-184 0 0 300-150 0z" horiz-adv-x="1000" />

<glyph glyph-name="tag" unicode="&#xe845;" d="M250 600q0 30-21 51t-50 20-51-20-21-51 21-50 51-21 50 21 21 50z m595-321q0-30-20-51l-274-274q-22-21-51-21-30 0-50 21l-399 399q-21 21-36 57t-15 65v232q0 29 21 50t50 22h233q29 0 65-15t57-36l399-399q20-21 20-50z" horiz-adv-x="857.1" />

<glyph glyph-name="tags-outline" unicode="&#xe846;" d="M1011 502q30-32 30-74t-30-73l-56-56 5-5q30-31 29-74t-30-73l-364-366q-30-30-74-30t-73 30q-227 227-342 338-106 106-106 258 0 102 54 188-8 165 105 278 106 106 257 106 153 0 259-106z m-490-647l364 365-336 340q-76 77-184 77-109 0-185-77t-76-183 76-184q115-111 341-338z m102 779l258-261 57 56-337 340q-76 76-185 76-107 0-183-76-35-35-54-79 86 52 186 52 150 0 258-108z m-258-179q-32 0-56-23t-23-55 23-55 56-23 55 23 23 55-23 55-55 23z m0 52q54 0 92-39t38-91-38-92-92-38-92 38-38 92 38 91 92 39z" horiz-adv-x="1041" />

<glyph glyph-name="code-outline" unicode="&#xe847;" d="M378 38q-65 0-112 47l-266 266 266 267q44 44 111 44t111-44q46-46 46-110t-46-111l-45-46 45-45q46-46 46-111t-46-110-110-47z m-230 313l192-193q15-15 37-15t37 15 15 37-15 37l-119 119 119 120q15 15 15 37t-15 37-37 15-37-15z m663-313q-63 0-110 47t-46 110 46 111l47 45-47 46q-46 46-46 111t46 110q44 44 111 44t111-44l266-267-266-266q-47-47-112-47z m0 522q-21 0-36-15t-15-37 15-37l119-120-119-119q-15-15-15-37t15-37 37-15 37 15l192 193-192 194q-15 15-38 15z" horiz-adv-x="1189" />

<glyph glyph-name="attribute" unicode="&#xe848;" d="M944 830q36-106-8-199t-128-157l18-24q16-28 6-54l-48-158q-12-30-36-46l-464-328q-42-30-64 4l-210 304q-12 18-9 39t21 33l464 328q26 18 54 18l158 0q30 0 48-26l28-40q168 130 114 286-10 28 18 40 32 8 38-20z m-216-468q40 32 34 80l-32-16q-8-4-12-4-18 0-28 18-12 30 16 40l24 14q-48 34-92 0-28-18-34-51t14-61q18-26 51-32t59 12z" horiz-adv-x="960" />

<glyph glyph-name="info-outline" unicode="&#xe849;" d="M429 115q50-6 78-51 18-31 12-69t-34-61q-92-79-215-79-160 0-220 122-52 109 13 238l30 58q-51 6-79 51-19 31-12 69t33 61q64 54 154 71-32 53-32 111 0 87 61 148t147 61 147-61 61-148q0-62-35-114t-90-77q40-52 44-123t-34-149z m-64 625q-43 0-74-31t-31-73 31-73 74-30q43 0 73 30t31 73-31 73-73 31z m-95-781q39 0 76 13t54 27l17 12q-33-11-63-11-46 0-56 33t15 82l52 104q44 91 10 150t-123 59q-39 0-76-14t-54-25l-18-13q34 12 64 12 46 0 56-34t-15-81l-52-104q-44-91-10-151t123-59z" horiz-adv-x="573" />

<glyph glyph-name="info-curve" unicode="&#xe84a;" d="M331 37q18 6 30-12t-4-34q-5-5-22-16t-59-26-84-15q-109 0-149 79-35 74 13 167l52 104q28 55 3 73-5 5-22 5-11 0-24-3t-22-5l-7-2q-19-7-31 11t4 32q7 7 22 17t58 26 84 16q111 0 150-79 35-73-12-167l-53-104q-27-56-2-74 3-3 21-3 11 0 24 2t22 5z m-174 600q0 130 130 130t130-130-130-130-130 130z" horiz-adv-x="417" />

<glyph glyph-name="network" unicode="&#xe84b;" d="M224 504q-22 0-42-10-48 52-92 128 54 74 128 118 92-38 152-82-6-16-6-32 0-6 4-22-62-48-116-104-16 4-28 4z m-98-98q0-34 20-60-60-114-80-232-66 106-66 236 0 110 50 206 38-62 84-112-8-24-8-38z m336 318q-28 0-50-14-58 42-114 70 84 30 162 30 120 0 230-62-76-14-162-50-26 26-66 26z m146-460q-160 24-290 112 4 20 4 30 0 24-14 52 38 44 98 90 26-20 56-20 14 0 38 8 94-108 134-240-16-14-26-32z m128-132q38 14 54 60 58 4 108 18-46-146-166-232 6 48 6 98 0 10-1 28t-1 28z m-150 66q-190-96-304-272-90 36-158 110 12 144 80 274 6-2 20-2 30 0 52 14 142-98 310-124z m184 492q150-136 150-340 0-22-4-66-64-18-130-24-24 56-88 60-48 146-148 264 10 20 10 42l0 10q100 42 210 54z m-136-544q14-10 32-18 2-18 2-52 0-80-14-144-86-42-194-42-58 0-112 12 110 160 286 244z" horiz-adv-x="920" />

<glyph glyph-name="group" unicode="&#xe84c;" d="M0 106l0 134q0 26 18 32l171 80q-66 39-68 131 0 56 35 103 37 41 90 43 31 0 63-19-49-125 23-237-12-11-25-19l-114-55q-48-23-52-84l0-143-114 0q-25 0-27 34z m193-59l0 168q0 27 22 37l152 70 57 28q-37 23-60 66t-22 94q0 76 46 130t110 54 109-54 45-130q0-105-78-158l61-30 146-70q24-10 24-37l0-168q-2-37-37-41l-541 0q-14 2-24 14t-10 27z m473 330q68 106 22 231 31 19 66 21 49 0 90-43 35-41 35-103 0-82-65-131l168-80q18-10 18-32l0-134q0-32-27-34l-118 0 0 143q0 57-50 84l-110 53q-15 8-29 25z" horiz-adv-x="1000" />

<glyph glyph-name="bar-chart" unicode="&#xe84d;" d="M750 800q22 0 36-15t14-35l0-850-200 0 0 850q0 50 40 50l110 0z m-300-300q22 0 36-15t14-35l0-550-200 0 0 550q0 50 40 50l110 0z m-300-300q22 0 36-15t14-35l0-250-200 0 0 250q0 50 40 50l110 0z" horiz-adv-x="800" />

<glyph glyph-name="flow" unicode="&#xe84e;" d="M520 120q50 0 85-35t35-85-35-85-85-35q-80 0-110 74l-164 0q-88 0-131 54t-43 118l0 464q-72 34-72 110 0 50 35 85t85 35 85-35 35-85q0-76-72-110l0-114q0-78 78-78l164 0q30 72 110 72 50 0 85-35t35-85-35-85-85-35q-80 0-110 74l-164 0q-42 0-78 16l0-194q0-78 78-78l164 0q30 72 110 72z m0 300q-28 0-49-20t-21-50q0-28 21-48t49-20 49 20 21 48q0 30-21 50t-49 20z m-470 280q0-28 21-48t49-20 49 20 21 48q0 30-21 50t-49 20-49-20-21-50z m470-768q28 0 49 20t21 48q0 30-21 50t-49 20-49-20-21-50q0-28 21-48t49-20z" horiz-adv-x="640" />

<glyph glyph-name="css" unicode="&#xe84f;" d="M0 57l0 774 1000 0 0-774-500-187z m109 336q0-57 35-94t96-37q119 0 121 108l-76 0q0-45-47-47-23 0-35 16t-12 42q0 49 12 67 20 25 55 11 25-9 25-44l78 0q0 52-33 80t-88 29q-56 0-94-35t-37-96z m284-41q0-88 125-90 109 0 111 88-2 57-76 72-2 0-17 3t-25 5-21 8-10 14q0 15 34 17 31 0 33-25l0-2 74 0 0 4q0 39-33 58t-78 20q-110 0-113-80 0-59 74-76 4-2 18-5t26-5 20-8 10-14q0-15-35-15-41 0-41 31l-76 0z m265 0q0-88 125-90 110 0 112 88 0 18-8 29-16 30-69 43-2 0-17 3t-26 5-19 8-12 14q2 15 35 17 33 0 32-27l76 0q0 41-33 61t-79 21q-109 0-113-80 0-59 74-76 4-2 19-5l24-5t21-8 11-14q0-19-53-15-24 6-24 31l-76 0z" horiz-adv-x="1000" />

<glyph glyph-name="refresh" unicode="&#xe850;" d="M843 261q0-3 0-4-36-150-150-243t-267-93q-81 0-157 31t-136 88l-72-72q-11-11-25-11t-25 11-11 25v250q0 14 11 25t25 11h250q14 0 25-11t10-25-10-25l-77-77q40-36 90-57t105-20q74 0 139 37t104 99q6 10 30 66 4 13 16 13h107q8 0 13-6t5-12z m14 446v-250q0-14-10-25t-26-11h-250q-14 0-25 11t-10 25 10 25l77 77q-82 77-194 77-75 0-140-37t-104-99q-6-10-29-66-5-13-17-13h-111q-7 0-13 6t-5 12v4q36 150 151 243t268 93q81 0 158-31t137-88l72 72q11 11 25 11t26-11 10-25z" horiz-adv-x="857.1" />

<glyph glyph-name="cart" unicode="&#xe851;" d="M357-7q0-29-21-50t-50-22-50 22-22 50 22 50 50 21 50-21 21-50z m500 0q0-29-21-50t-50-22-50 22-22 50 22 50 50 21 50-21 21-50z m72 607v-286q0-13-10-23t-22-12l-583-68q7-34 7-40 0-8-13-35h513q15 0 26-11t10-25-10-25-26-11h-571q-14 0-25 11t-11 25q0 6 5 18t9 20 12 22 8 17l-98 459h-114q-15 0-25 10t-11 25 11 26 25 10h143q9 0 16-3t10-9 8-14 4-14 3-17 3-14h670q14 0 25-11t11-25z" horiz-adv-x="928.6" />

<glyph glyph-name="credit-card" unicode="&#xe852;" d="M982 779q37 0 63-27t26-63v-678q0-37-26-63t-63-27h-893q-36 0-63 27t-26 63v678q0 37 26 63t63 27h893z m-893-72q-7 0-12-5t-6-13v-125h929v125q0 8-5 13t-13 5h-893z m893-714q7 0 13 5t5 13v339h-929v-339q0-7 6-13t12-5h893z m-839 71v72h143v-72h-143z m214 0v72h214v-72h-214z" horiz-adv-x="1071.4" />

<glyph glyph-name="flow-tree" unicode="&#xe853;" d="M868 112q72-34 72-112 0-50-35-85t-85-35-85 35-35 85q0 78 72 112l0 114q0 78-76 78l-100 0q-44 0-78 12l0-204q72-34 72-112 0-50-35-85t-85-35-85 35-35 85q0 78 72 112l0 204q-30-12-76-12l-100 0q-34 0-53-19t-22-33-3-26l0-114q72-34 72-112 0-50-35-85t-85-35-85 35-35 85q0 78 72 112l0 114q0 64 43 118t131 54l100 0q76 0 76 52l0 140q-72 34-72 110 0 50 35 85t85 35 85-35 35-85q0-76-72-110l0-140q0-52 78-52l100 0q86 0 129-54t43-118l0-114z m-678-112q0 30-21 50t-49 20-48-20-20-50q0-28 20-48t48-20 49 20 21 48z m212 700q0-28 20-48t48-20 49 20 21 48q0 30-21 50t-49 20-48-20-20-50z m138-700q0 30-21 50t-49 20-48-20-20-50q0-28 20-48t48-20 49 20 21 48z m280-68q28 0 49 20t21 48q0 30-21 50t-49 20-48-20-20-50q0-28 20-48t48-20z" horiz-adv-x="940" />

<glyph glyph-name="scissors" unicode="&#xe854;" d="M536 350q14 0 25-11t10-25-10-25-25-10-25 10-11 25 11 25 25 11z m167-36l283-222q16-11 14-31-3-20-19-28l-72-36q-7-4-16-4-10 0-17 4l-385 216-62-36q-4-3-7-3 8-28 6-54-4-43-31-83t-74-69q-74-47-154-47-76 0-124 44-51 47-44 116 4 42 31 82t73 69q74 47 155 47 46 0 84-18 5 8 13 13l68 40-68 41q-8 5-13 12-38-17-84-17-81 0-155 47-46 30-73 69t-31 82q-3 33 8 63t36 52q47 44 124 44 80 0 154-47 46-29 74-68t31-83q2-27-6-54 3-1 7-3l62-37 385 216q7 5 17 5 9 0 16-4l72-36q16-9 19-28 2-20-14-32z m-380 145q26 24 12 61t-59 65q-52 33-107 33-42 0-63-20-26-24-12-60t59-66q51-33 107-33 41 0 63 20z m-47-415q45 28 59 65t-12 60q-22 20-63 20-56 0-107-33-45-28-59-65t12-60q21-20 63-20 55 0 107 33z m99 342l54-33v7q0 20 18 31l8 4-44 26-15-14q-1-2-5-6t-7-7q-1-1-2-2t-2-1z m125-125l54-18 410 321-71 36-429-240v-64l-89-53 5-5q1-1 4-3 2-2 6-7t6-6l15-15z m393-232l71 35-290 228-99-77q-1-2-7-4z" horiz-adv-x="1000" />

<glyph glyph-name="truck" unicode="&#xe855;" d="M357 64q0 29-21 51t-50 21-50-21-22-51 22-50 50-21 50 21 21 50z m-214 286h214v143h-88q-7 0-12-5l-109-109q-5-5-5-12v-17z m714-286q0 29-21 51t-50 21-50-21-22-51 22-50 50-21 50 21 21 50z m143 607v-571q0-8-2-15t-8-10-9-6-13-4-13-1-14 0-12 0q0-59-42-101t-101-42-101 42-42 101h-214q0-59-42-101t-101-42-101 42-42 101h-36q-1 0-12 0t-15 0-12 1-13 4-9 6-8 10-2 15q0 15 10 25t25 11v178q0 5 0 20t0 21 2 19 3 21 8 17 13 17l110 110q11 11 28 18t33 7h89v107q0 15 11 26t25 10h571q15 0 25-10t11-26z" horiz-adv-x="1000" />

<glyph glyph-name="warehouse" unicode="&#xe856;" d="M475 700l-475-275 100 0 0-400c0-25 22-50 50-50l150 0 0 250c0 28 22 50 50 50l350 0c28 0 49-22 50-50l0-250 150 0c28 0 50 22 50 50l0 400 100 0-475 275c-21 12-42 25-50 25-8 0-28-12-50-25z m-125-475l0-50 350 0 0 50z m0-100l0-50 350 0 0 50z m0-100l0-50 350 0 0 50z" horiz-adv-x="1050" />

<glyph glyph-name="money" unicode="&#xe857;" d="M238 378c13 16 35 21 65 24l0-85c-50 5-75 9-75 39 0 7 2 15 10 22z m107-241l0 91c59-5 78-9 78-35 0-30-24-49-78-56z m70 244c30-17 36-24 36-38l8-4 45 90-6 5c-7-5-10-7-14-7s-8 0-13 4c-61 23-90 35-126 35l0 17c0 9 5 15 20 19l0 9-79 0 0-9c14-4 17-11 17-19l0-15c-97-4-153-50-153-122 0-74 40-100 153-110l0-97c-78 8-117 38-117 64l-7 4-41-94 6-4c6 4 9 5 12 5 2 0 7 0 9-2 48-24 94-38 138-40l0-19c0-10-3-16-17-20l0-9 79 0 0 9c-15 4-20 9-20 20l0 19c96 5 159 54 159 126 0 70-53 106-149 115l-10 0 0 88c23-2 46-8 70-20z m41 181c117-50 198-165 198-300 0-181-146-328-326-328-182 0-328 147-328 328 0 135 81 250 198 300l-82 179c0 17 12 25 28 25l366 0c16 0 28-7 28-25z" horiz-adv-x="654" />

<glyph glyph-name="cw" unicode="&#xe858;" d="M857 707v-250q0-14-10-25t-26-11h-250q-23 0-32 23-10 22 7 38l77 77q-82 77-194 77-58 0-111-23t-91-61-61-91-23-111 23-111 61-91 91-61 111-23q66 0 125 29t100 82q4 6 13 7 8 0 14-5l76-77q5-4 6-11t-5-13q-60-74-147-114t-182-41q-87 0-167 34t-136 92-92 137-34 166 34 166 92 137 136 92 167 34q82 0 158-31t137-88l72 72q17 18 39 8 22-9 22-33z" horiz-adv-x="857.1" />

<glyph glyph-name="ccw" unicode="&#xe859;" d="M857 350q0-87-34-166t-91-137-137-92-166-34q-96 0-183 41t-147 114q-4 6-4 13t5 11l76 77q6 5 14 5 9-1 13-7 41-53 100-82t126-29q58 0 110 23t92 61 61 91 22 111-22 111-61 91-92 61-110 23q-55 0-105-20t-90-57l77-77q17-16 8-38-10-23-33-23h-250q-15 0-25 11t-11 25v250q0 24 22 33 22 10 39-8l72-72q60 57 137 88t159 31q87 0 166-34t137-92 91-137 34-166z" horiz-adv-x="857.1" />

<glyph glyph-name="resize-vertical" unicode="&#xe85a;" d="M393 671q0-14-11-25t-25-10h-71v-572h71q15 0 25-10t11-25-11-25l-143-143q-10-11-25-11t-25 11l-143 143q-10 10-10 25t10 25 25 10h72v572h-72q-14 0-25 10t-10 25 10 26l143 142q11 11 25 11t25-11l143-142q11-11 11-26z" horiz-adv-x="428.6" />

<glyph glyph-name="resize-horizontal" unicode="&#xe85b;" d="M1000 350q0-14-11-25l-142-143q-11-11-26-11t-25 11-10 25v72h-572v-72q0-14-10-25t-25-11-25 11l-143 143q-11 11-11 25t11 25l143 143q10 11 25 11t25-11 10-25v-72h572v72q0 14 10 25t25 11 26-11l142-143q11-10 11-25z" horiz-adv-x="1000" />

<glyph glyph-name="forward" unicode="&#xe85c;" d="M1000 493q0-15-11-25l-285-286q-11-11-25-11t-25 11-11 25v143h-125q-55 0-98-3t-86-12-74-24-59-39-45-56-27-77-10-101q0-31 3-69 0-4 2-13t1-15q0-8-5-14t-13-6q-9 0-15 10-4 5-8 12t-7 17-6 13q-71 159-71 252 0 111 30 186 90 225 488 225h125v143q0 14 11 25t25 10 25-10l285-286q11-11 11-25z" horiz-adv-x="1000" />

<glyph glyph-name="light-up" unicode="&#xe85d;" d="M950 390q20 0 35-12t15-28q0-40-50-40l-48 0q-50 0-50 40 0 16 15 28t35 12l48 0z m-450 234q114 0 195-80t81-194q0-116-81-196t-195-80-194 80-80 196q0 114 80 194t194 80z m0-474q82 0 141 58t59 142q0 82-59 141t-141 59-141-59-59-141q0-84 59-142t141-58z m-350 200q0-40-50-40l-50 0q-50 0-50 40 0 16 15 28t35 12l50 0q20 0 35-12t15-28z m350 350q-16 0-28 15t-12 35l0 50q0 20 12 35t28 15 28-15 12-35l0-50q0-20-12-35t-28-15z m0-700q16 0 28-15t12-35l0-50q0-20-12-35t-28-15-28 15-12 35l0 50q0 20 12 35t28 15z m368 660l-34-34q-34-34-64-8-28 28 8 64 4 6 34 36 36 34 64 6t-8-64z m-700-588q14 16 33 18t29-10q12-12 10-31t-16-33l-36-36q-14-14-33-16t-29 10q-30 28 6 64 6 4 36 34z m20 646l36-36q36-36 6-64-10-10-29-8t-33 16q-30 30-36 34-14 14-16 33t10 31q10 12 29 10t33-16z m590-702q-36 36-8 64t64-8l34-34q36-36 8-64t-64 6q-30 30-34 36z" horiz-adv-x="1000" />

<glyph glyph-name="droplet" unicode="&#xe85e;" d="M290 822q14-118 60-219t92-159 82-136 36-160q0-114-83-196t-197-82-197 82-83 196q0 82 36 160t82 136 92 159 60 219q2 8 11 8t9-8z m-42-392q2 4-2 14-6 6-14 6t-12-6l-40-58q-32-46-48-70t-34-75-18-101q0-24 17-41t41-17q58 0 58 68 0 94 42 246 2 6 5 17t5 17z" horiz-adv-x="560" />

<glyph glyph-name="translate" unicode="&#xe85f;" d="M988 306q30-82-10-176t-134-160q-10 0-12 2t-16 19-16 19q-2 6 2 10 86 60 117 152t-11 148q-16-38-39-76t-59-80-86-65-106-15q-52 6-84 41t-32 93q0 84 60 148 50 50 114 66l-2 100q-140-24-146-24-6-2-10 4 0 2-5 29t-5 31q-2 2 1 4t7 2l156 28q0 110-2 114 0 8 8 8 46 0 52 2 10 0 10-8l0-104q158 22 164 22 8 4 10-6 0-2 4-23t4-25q4-10-4-12l-176-30 0-102 12 0q86 0 148-36t86-100z m-370-160q28-6 62 6l-4 214q-34-12-60-40-44-44-44-108 0-66 46-72z m122 28q28 24 58 68t45 79 7 41q-36 18-96 18-2 0-6-1t-6-1z m-448 382q10-28 53-165t83-261 40-126q0-4-4-4l-86 0q-6 0-6 4l-50 166-176 0q-48-164-50-166 0-4-6-4l-86 0q-4 0-4 4 10 18 176 552 2 8 10 8l96 0q10 0 10-8z m-130-316l144 0-72 264z" horiz-adv-x="1001" />

<glyph glyph-name="move" unicode="&#xf047;" d="M1000 350q0-14-11-25l-142-143q-11-11-26-11t-25 11-10 25v72h-215v-215h72q14 0 25-10t11-25-11-25l-143-143q-10-11-25-11t-25 11l-143 143q-11 10-11 25t11 25 25 10h72v215h-215v-72q0-14-10-25t-25-11-25 11l-143 143q-11 11-11 25t11 25l143 143q10 11 25 11t25-11 10-25v-72h215v215h-72q-14 0-25 10t-11 25 11 26l143 142q11 11 25 11t25-11l143-142q11-11 11-26t-11-25-25-10h-72v-215h215v72q0 14 10 25t25 11 26-11l142-143q11-10 11-25z" horiz-adv-x="1000" />

<glyph glyph-name="external-link" unicode="&#xf08e;" d="M786 332v-178q0-67-47-114t-114-47h-464q-67 0-114 47t-47 114v464q0 66 47 113t114 48h393q7 0 12-5t5-13v-36q0-8-5-13t-12-5h-393q-37 0-63-26t-27-63v-464q0-37 27-63t63-27h464q37 0 63 27t26 63v178q0 8 5 13t13 5h36q8 0 13-5t5-13z m214 482v-285q0-15-11-25t-25-11-25 11l-98 98-364-364q-5-6-13-6t-12 6l-64 64q-6 5-6 12t6 13l364 364-98 98q-11 11-11 25t11 25 25 11h285q15 0 25-11t11-25z" horiz-adv-x="1000" />

<glyph glyph-name="rss" unicode="&#xf09e;" d="M214 100q0-45-31-76t-76-31-76 31-31 76 31 76 76 31 76-31 31-76z m286-69q1-15-9-26-10-12-27-12h-75q-14 0-24 9t-11 23q-12 128-103 219t-219 103q-14 1-23 11t-9 24v75q0 16 12 26 9 10 24 10h3q89-7 170-45t145-101q63-63 101-145t45-171z m286-1q1-15-10-26-10-11-26-11h-80q-14 0-25 10t-10 23q-7 120-57 228t-129 188-188 129-227 57q-14 1-24 11t-10 24v80q0 16 11 26 10 10 25 10h1q147-8 280-67t238-164q104-104 164-238t67-280z" horiz-adv-x="785.7" />

<glyph glyph-name="filter" unicode="&#xf0b0;" d="M783 685q9-22-8-39l-275-275v-414q0-23-22-33-7-3-14-3-15 0-25 11l-143 143q-10 11-10 25v271l-275 275q-18 17-8 39 9 22 33 22h714q23 0 33-22z" horiz-adv-x="785.7" />

<glyph glyph-name="resize-full-alt" unicode="&#xf0b2;" d="M716 548l-198-198 198-198 80 80q17 18 39 8 22-9 22-33v-250q0-14-10-25t-26-11h-250q-23 0-32 23-10 21 7 38l81 81-198 198-198-198 80-81q17-17 8-38-10-23-33-23h-250q-15 0-25 11t-11 25v250q0 24 22 33 22 10 39-8l80-80 198 198-198 198-80-80q-11-11-25-11-7 0-14 3-22 9-22 33v250q0 14 11 25t25 11h250q23 0 33-23 9-21-8-38l-80-81 198-198 198 198-81 81q-17 17-7 38 9 23 32 23h250q15 0 26-11t10-25v-250q0-24-22-33-7-3-14-3-14 0-25 11z" horiz-adv-x="857.1" />

<glyph glyph-name="docs" unicode="&#xf0c5;" d="M946 636q23 0 38-16t16-38v-678q0-23-16-38t-38-16h-535q-23 0-38 16t-16 38v160h-303q-23 0-38 16t-16 38v375q0 22 11 49t27 42l228 228q15 16 42 27t49 11h232q23 0 38-16t16-38v-183q38 23 71 23h232z m-303-119l-167-167h167v167z m-357 214l-167-167h167v167z m109-361l176 176v233h-214v-233q0-22-15-37t-38-16h-233v-357h286v143q0 22 11 49t27 42z m534-449v643h-215v-232q0-22-15-38t-38-15h-232v-358h500z" horiz-adv-x="1000" />

<glyph glyph-name="table" unicode="&#xf0ce;" d="M286 82v107q0 8-5 13t-13 5h-179q-7 0-12-5t-6-13v-107q0-8 6-13t12-5h179q8 0 13 5t5 13z m0 214v108q0 7-5 12t-13 5h-179q-7 0-12-5t-6-12v-108q0-7 6-12t12-5h179q8 0 13 5t5 12z m285-214v107q0 8-5 13t-12 5h-179q-8 0-13-5t-5-13v-107q0-8 5-13t13-5h179q7 0 12 5t5 13z m-285 429v107q0 8-5 13t-13 5h-179q-7 0-12-5t-6-13v-107q0-8 6-13t12-5h179q8 0 13 5t5 13z m285-215v108q0 7-5 12t-12 5h-179q-8 0-13-5t-5-12v-108q0-7 5-12t13-5h179q7 0 12 5t5 12z m286-214v107q0 8-5 13t-13 5h-178q-8 0-13-5t-5-13v-107q0-8 5-13t13-5h178q8 0 13 5t5 13z m-286 429v107q0 8-5 13t-12 5h-179q-8 0-13-5t-5-13v-107q0-8 5-13t13-5h179q7 0 12 5t5 13z m286-215v108q0 7-5 12t-13 5h-178q-8 0-13-5t-5-12v-108q0-7 5-12t13-5h178q8 0 13 5t5 12z m0 215v107q0 8-5 13t-13 5h-178q-8 0-13-5t-5-13v-107q0-8 5-13t13-5h178q8 0 13 5t5 13z m72 178v-607q0-37-27-63t-63-26h-750q-36 0-63 26t-26 63v607q0 37 26 63t63 27h750q37 0 63-27t27-63z" horiz-adv-x="928.6" />

<glyph glyph-name="columns" unicode="&#xf0db;" d="M89-7h340v643h-358v-625q0-7 6-13t12-5z m768 18v625h-357v-643h339q8 0 13 5t5 13z m72 678v-678q0-37-27-63t-63-27h-750q-36 0-63 27t-26 63v678q0 37 26 63t63 27h750q37 0 63-27t27-63z" horiz-adv-x="928.6" />

<glyph glyph-name="sort" unicode="&#xf0dc;" d="M571 243q0-15-10-25l-250-250q-11-11-25-11t-25 11l-250 250q-11 10-11 25t11 25 25 11h500q14 0 25-11t10-25z m0 214q0-14-10-25t-25-11h-500q-15 0-25 11t-11 25 11 25l250 250q10 11 25 11t25-11l250-250q10-10 10-25z" horiz-adv-x="571.4" />

<glyph glyph-name="envelope-alt" unicode="&#xf0e0;" d="M1000 454v-443q0-37-26-63t-63-27h-822q-36 0-63 27t-26 63v443q25-27 56-49 202-137 278-192 32-24 51-37t53-27 61-13h2q28 0 61 13t53 27 51 37q95 68 278 192 32 22 56 49z m0 164q0-44-27-84t-68-69q-210-146-262-181-5-4-23-17t-30-22-29-18-32-15-28-5h-2q-12 0-27 5t-32 15-30 18-30 22-23 17q-51 35-147 101t-114 80q-35 23-65 64t-31 77q0 43 23 72t66 29h822q36 0 63-26t26-63z" horiz-adv-x="1000" />

<glyph glyph-name="sitemap" unicode="&#xf0e8;" d="M1000 154v-179q0-22-16-38t-38-16h-178q-22 0-38 16t-16 38v179q0 22 16 38t38 15h53v107h-285v-107h53q23 0 38-15t16-38v-179q0-22-16-38t-38-16h-178q-23 0-38 16t-16 38v179q0 22 16 38t38 15h53v107h-285v-107h53q23 0 38-15t16-38v-179q0-22-16-38t-38-16h-178q-23 0-38 16t-16 38v179q0 22 16 38t38 15h53v107q0 29 21 51t51 21h285v107h-53q-23 0-38 16t-16 37v179q0 22 16 38t38 16h178q23 0 38-16t16-38v-179q0-22-16-37t-38-16h-53v-107h285q29 0 51-21t21-51v-107h53q23 0 38-15t16-38z" horiz-adv-x="1000" />

<glyph glyph-name="doc-text" unicode="&#xf0f6;" d="M819 638q16-16 27-42t11-50v-642q0-23-15-38t-38-16h-750q-23 0-38 16t-16 38v892q0 23 16 38t38 16h500q22 0 49-11t42-27z m-248 136v-210h210q-5 17-12 23l-175 175q-6 7-23 12z m215-853v572h-232q-23 0-38 16t-16 37v233h-429v-858h715z m-572 483q0 7 5 12t13 5h393q8 0 13-5t5-12v-36q0-8-5-13t-13-5h-393q-8 0-13 5t-5 13v36z m411-125q8 0 13-5t5-13v-36q0-8-5-13t-13-5h-393q-8 0-13 5t-5 13v36q0 8 5 13t13 5h393z m0-143q8 0 13-5t5-13v-36q0-8-5-13t-13-5h-393q-8 0-13 5t-5 13v36q0 8 5 13t13 5h393z" horiz-adv-x="857.1" />

<glyph glyph-name="angle-double-left" unicode="&#xf100;" d="M350 82q0-7-6-13l-28-28q-5-5-12-5t-13 5l-260 261q-6 5-6 12t6 13l260 260q5 6 13 6t12-6l28-28q6-5 6-13t-6-12l-219-220 219-219q6-6 6-13z m214 0q0-7-5-13l-28-28q-6-5-13-5t-13 5l-260 261q-6 5-6 12t6 13l260 260q6 6 13 6t13-6l28-28q5-5 5-13t-5-12l-220-220 220-219q5-6 5-13z" horiz-adv-x="571.4" />

<glyph glyph-name="angle-double-right" unicode="&#xf101;" d="M332 314q0-7-5-12l-261-261q-5-5-12-5t-13 5l-28 28q-6 6-6 13t6 13l219 219-219 220q-6 5-6 12t6 13l28 28q5 6 13 6t12-6l261-260q5-5 5-13z m214 0q0-7-5-12l-260-261q-6-5-13-5t-13 5l-28 28q-5 6-5 13t5 13l219 219-219 220q-5 5-5 12t5 13l28 28q6 6 13 6t13-6l260-260q5-5 5-13z" horiz-adv-x="571.4" />

<glyph glyph-name="angle-double-up" unicode="&#xf102;" d="M600 118q0-7-6-13l-28-28q-5-5-12-5t-13 5l-220 219-219-219q-5-5-13-5t-12 5l-28 28q-6 6-6 13t6 13l260 260q5 5 12 5t13-5l260-260q6-6 6-13z m0 214q0-7-6-13l-28-28q-5-5-12-5t-13 5l-220 220-219-220q-5-5-13-5t-12 5l-28 28q-6 6-6 13t6 13l260 260q5 6 12 6t13-6l260-260q6-6 6-13z" horiz-adv-x="642.9" />

<glyph glyph-name="angle-double-down" unicode="&#xf103;" d="M600 368q0-7-6-13l-260-260q-5-6-13-6t-12 6l-260 260q-6 6-6 13t6 13l28 28q5 5 12 5t13-5l219-220 220 220q5 5 13 5t12-5l28-28q6-6 6-13z m0 214q0-7-6-13l-260-260q-5-5-13-5t-12 5l-260 260q-6 6-6 13t6 13l28 28q5 6 12 6t13-6l219-219 220 219q5 6 13 6t12-6l28-28q6-6 6-13z" horiz-adv-x="642.9" />

<glyph glyph-name="angle-left" unicode="&#xf104;" d="M350 546q0-7-6-12l-219-220 219-219q6-6 6-13t-6-13l-28-28q-5-5-12-5t-13 5l-260 261q-6 5-6 12t6 13l260 260q5 6 13 6t12-6l28-28q6-5 6-13z" horiz-adv-x="357.1" />

<glyph glyph-name="angle-right" unicode="&#xf105;" d="M332 314q0-7-5-12l-261-261q-5-5-12-5t-13 5l-28 28q-6 6-6 13t6 13l219 219-219 220q-6 5-6 12t6 13l28 28q5 6 13 6t12-6l261-260q5-5 5-13z" horiz-adv-x="357.1" />

<glyph glyph-name="angle-up" unicode="&#xf106;" d="M600 189q0-7-6-12l-28-28q-5-6-12-6t-13 6l-220 219-219-219q-5-6-13-6t-12 6l-28 28q-6 5-6 12t6 13l260 260q5 6 12 6t13-6l260-260q6-5 6-13z" horiz-adv-x="642.9" />

<glyph glyph-name="angle-down" unicode="&#xf107;" d="M600 439q0-7-6-12l-260-261q-5-5-13-5t-12 5l-260 261q-6 5-6 12t6 13l28 28q5 6 12 6t13-6l219-219 220 219q5 6 13 6t12-6l28-28q6-5 6-13z" horiz-adv-x="642.9" />

<glyph glyph-name="desktop" unicode="&#xf108;" d="M1000 296v465q0 7-5 12t-13 6h-893q-7 0-12-6t-6-12v-465q0-7 6-12t12-5h893q7 0 13 5t5 12z m71 465v-607q0-37-26-63t-63-27h-303q0-20 9-43t17-40 9-24q0-14-10-25t-25-11h-286q-15 0-25 11t-11 25q0 8 9 25t18 39 9 43h-304q-36 0-63 27t-26 63v607q0 37 26 63t63 26h893q37 0 63-26t26-63z" horiz-adv-x="1071.4" />

<glyph glyph-name="spinner" unicode="&#xf110;" d="M294 72q0-29-21-50t-51-21q-29 0-50 21t-21 50q0 30 21 51t50 21 51-21 21-51z m277-115q0-29-20-50t-51-21-50 21-21 50 21 51 50 21 51-21 20-51z m-392 393q0-30-21-50t-51-21-50 21-21 50 21 51 50 20 51-20 21-51z m670-278q0-29-21-50t-50-21q-30 0-51 21t-20 50 20 51 51 21 50-21 21-51z m-538 556q0-37-26-63t-63-26-63 26-26 63 26 63 63 26 63-26 26-63z m653-278q0-30-21-50t-50-21-51 21-21 50 21 51 51 20 50-20 21-51z m-357 393q0-45-31-76t-76-31-76 31-31 76 31 76 76 31 76-31 31-76z m296-115q0-52-37-88t-88-37q-52 0-88 37t-37 88q0 51 37 88t88 37q51 0 88-37t37-88z" horiz-adv-x="1000" />

<glyph glyph-name="reply" unicode="&#xf112;" d="M1000 225q0-93-71-252-1-4-6-13t-7-17-7-12q-7-10-16-10-8 0-13 6t-5 14q0 5 1 15t2 13q3 38 3 69 0 56-10 101t-27 77-45 56-59 39-74 24-86 12-98 3h-125v-143q0-14-10-25t-26-11-25 11l-285 286q-11 10-11 25t11 25l285 286q11 10 25 10t26-10 10-25v-143h125q398 0 488-225 30-75 30-186z" horiz-adv-x="1000" />

<glyph glyph-name="folder-empty" unicode="&#xf114;" d="M857 118v393q0 22-15 38t-38 15h-393q-23 0-38 16t-16 38v36q0 22-15 38t-38 15h-179q-22 0-38-15t-16-38v-536q0-22 16-38t38-16h679q22 0 38 16t15 38z m72 393v-393q0-51-37-88t-88-37h-679q-51 0-88 37t-37 88v536q0 51 37 88t88 37h179q51 0 88-37t37-88v-18h375q51 0 88-37t37-88z" horiz-adv-x="928.6" />

<glyph glyph-name="folder-open-empty" unicode="&#xf115;" d="M994 331q0 19-30 19h-607q-22 0-48-12t-39-29l-164-203q-11-13-11-22 0-20 30-20h607q23 0 48 13t40 29l164 203q10 12 10 22z m-637 90h429v90q0 22-16 38t-38 15h-321q-23 0-38 16t-16 38v36q0 22-15 38t-38 15h-179q-22 0-38-15t-16-38v-476l143 175q25 30 65 49t78 19z m708-90q0-35-25-67l-165-203q-24-30-65-49t-78-19h-607q-51 0-88 37t-37 88v536q0 51 37 88t88 37h179q51 0 88-37t37-88v-18h303q52 0 88-37t37-88v-90h107q30 0 56-13t37-40q8-17 8-37z" horiz-adv-x="1071.4" />

<glyph glyph-name="frown" unicode="&#xf119;" d="M633 164q4-14-2-27t-21-17-27 2-18 21q-14 45-52 72t-84 28-85-28-52-72q-4-14-17-21t-27-2q-15 4-21 17t-3 27q21 68 77 109t128 41 127-41 77-109z m-276 329q0-30-21-51t-50-21-51 21-21 51 21 50 51 21 50-21 21-50z m286 0q0-30-21-51t-51-21-50 21-21 51 21 50 50 21 51-21 21-50z m143-143q0 73-29 139t-76 114-114 76-138 28-139-28-114-76-76-114-29-139 29-139 76-113 114-77 139-28 138 28 114 77 76 113 29 139z m71 0q0-117-57-215t-156-156-215-58-216 58-155 156-58 215 58 215 155 156 216 58 215-58 156-156 57-215z" horiz-adv-x="857.1" />

<glyph glyph-name="code" unicode="&#xf121;" d="M344 69l-28-28q-5-5-12-5t-13 5l-260 261q-6 5-6 12t6 13l260 260q5 6 13 6t12-6l28-28q6-5 6-13t-6-12l-219-220 219-219q6-6 6-13t-6-13z m330 596l-208-721q-2-7-9-11t-13-1l-34 9q-8 3-11 9t-2 14l209 720q2 8 8 11t13 2l35-10q7-2 11-9t1-13z m367-363l-260-261q-6-5-13-5t-13 5l-28 28q-5 6-5 13t5 13l219 219-219 220q-5 5-5 12t5 13l28 28q6 6 13 6t13-6l260-260q5-5 5-13t-5-12z" horiz-adv-x="1071.4" />

<glyph glyph-name="star-half-alt" unicode="&#xf123;" d="M662 316l143 140-198 29-37 5-17 34-89 179v-537l33-17 178-94-34 198-6 37z m252 146l-202-197 48-279q2-19-4-29t-19-11q-9 0-22 7l-251 132-250-132q-13-7-23-7-12 0-19 11t-3 29l48 279-203 197q-18 18-13 33t30 20l280 40 126 254q11 23 27 23 16 0 28-23l125-254 280-40q25-4 31-20t-14-33z" horiz-adv-x="928.6" />

<glyph glyph-name="direction" unicode="&#xf124;" d="M782 655l-357-714q-10-20-32-20-3 0-8 1-13 3-20 13t-8 22v322h-321q-13 0-22 7t-13 20 2 23 17 17l714 357q7 4 16 4 15 0 25-10 9-8 10-20t-3-22z" horiz-adv-x="785.7" />

<glyph glyph-name="crop" unicode="&#xf125;" d="M311 136h332v332z m-25 25l332 332h-332v-332z m643-43v-107q0-8-5-13t-13-5h-125v-125q0-8-5-13t-13-5h-107q-8 0-13 5t-5 13v125h-482q-8 0-13 5t-5 13v482h-125q-8 0-13 5t-5 13v107q0 8 5 13t13 5h125v125q0 8 5 13t13 5h107q8 0 13-5t5-13v-125h475l137 138q6 5 13 5t13-5q5-6 5-13t-5-13l-138-137v-475h125q8 0 13-5t5-13z" horiz-adv-x="928.6" />

<glyph glyph-name="unlink" unicode="&#xf127;" d="M245 141l-143-143q-6-5-13-5t-12 5q-6 6-6 13t6 13l142 142q6 5 13 5t13-5q5-5 5-12t-5-13z m94-23v-179q0-8-5-13t-13-5-12 5-5 13v179q0 8 5 13t12 5 13-5 5-13z m-125 125q0-8-5-13t-13-5h-178q-8 0-13 5t-5 13 5 13 13 5h178q8 0 13-5t5-13z m706-72q0-66-48-113l-82-81q-46-47-113-47-68 0-114 48l-186 187q-12 12-24 31l134 10 152-153q15-15 38-15t38 15l82 81q16 16 16 37 0 23-16 38l-153 154 10 133q20-11 31-23l188-188q47-48 47-114z m-345 404l-133-10-152 153q-16 16-38 16-22 0-38-15l-82-82q-16-15-16-37 0-22 16-38l153-153-10-134q-20 12-32 24l-187 187q-47 48-47 114 0 67 47 113l82 82q47 46 114 46 67 0 114-47l186-187q12-12 23-32z m354-46q0-8-5-13t-13-5h-179q-8 0-13 5t-5 13 5 12 13 5h179q8 0 13-5t5-12z m-304 303v-178q0-8-5-13t-13-5-13 5-5 13v178q0 8 5 13t13 5 13-5 5-13z m227-84l-143-143q-6-5-13-5t-12 5q-5 6-5 13t5 13l143 143q5 5 12 5t13-5q5-6 5-13t-5-13z" horiz-adv-x="928.6" />

<glyph glyph-name="help" unicode="&#xf128;" d="M393 149v-134q0-9-7-15t-15-7h-134q-9 0-16 7t-7 15v134q0 9 7 16t16 6h134q9 0 15-6t7-16z m176 335q0-30-8-56t-20-43-31-33-32-25-34-19q-23-13-38-37t-15-37q0-10-7-18t-16-9h-134q-8 0-14 11t-6 20v26q0 46 37 87t79 60q33 16 47 32t14 42q0 24-26 41t-60 18q-36 0-60-16-20-14-60-64-7-9-17-9-7 0-14 4l-91 70q-8 6-9 14t3 16q89 148 259 148 45 0 90-17t81-46 59-72 23-88z" horiz-adv-x="571.4" />

<glyph glyph-name="info" unicode="&#xf129;" d="M357 100v-71q0-15-10-25t-26-11h-285q-15 0-25 11t-11 25v71q0 15 11 25t25 11h35v214h-35q-15 0-25 11t-11 25v71q0 15 11 25t25 11h214q15 0 25-11t11-25v-321h35q15 0 26-11t10-25z m-71 643v-107q0-15-11-25t-25-11h-143q-14 0-25 11t-11 25v107q0 14 11 25t25 11h143q15 0 25-11t11-25z" horiz-adv-x="357.1" />

<glyph glyph-name="attention-alt" unicode="&#xf12a;" d="M286 154v-125q0-15-11-25t-25-11h-143q-14 0-25 11t-11 25v125q0 14 11 25t25 10h143q15 0 25-10t11-25z m17 589l-16-429q-1-14-12-25t-25-10h-143q-14 0-25 10t-12 25l-15 429q-1 14 10 25t24 11h179q14 0 25-11t10-25z" horiz-adv-x="357.1" />

<glyph glyph-name="calendar-empty" unicode="&#xf133;" d="M71-79h786v572h-786v-572z m215 679v161q0 8-5 13t-13 5h-36q-8 0-13-5t-5-13v-161q0-8 5-13t13-5h36q8 0 13 5t5 13z m428 0v161q0 8-5 13t-13 5h-35q-8 0-13-5t-5-13v-161q0-8 5-13t13-5h35q8 0 13 5t5 13z m215 36v-715q0-29-22-50t-50-21h-786q-29 0-50 21t-21 50v715q0 29 21 50t50 21h72v54q0 37 26 63t63 26h36q37 0 63-26t26-63v-54h214v54q0 37 27 63t63 26h35q37 0 64-26t26-63v-54h71q29 0 50-21t22-50z" horiz-adv-x="928.6" />

<glyph glyph-name="anchor" unicode="&#xf13d;" d="M536 707q0 15-11 25t-25 11-25-11-11-25 11-25 25-11 25 11 11 25z m464-518v-196q0-12-11-17-5-1-7-1-7 0-13 5l-52 52q-66-80-177-127t-240-46-240 46-177 127l-52-52q-5-5-13-5-2 0-7 1-11 5-11 17v196q0 8 5 13t13 5h196q13 0 17-11 5-11-4-19l-56-56q38-51 106-86t152-46v361h-108q-14 0-25 11t-10 25v71q0 15 10 25t25 11h108v91q-33 19-52 51t-20 72q0 59 42 101t101 42 101-42 42-101q0-39-20-72t-52-51v-91h108q14 0 25-11t10-25v-71q0-15-10-25t-25-11h-108v-361q84 11 152 46t106 86l-56 56q-8 8-4 19 4 11 17 11h196q8 0 13-5t5-13z" horiz-adv-x="1000" />

<glyph glyph-name="lock-open-alt" unicode="&#xf13e;" d="M589 421q23 0 38-15t16-38v-322q0-22-16-37t-38-16h-535q-23 0-38 16t-16 37v322q0 22 16 38t38 15h17v179q0 103 74 177t176 73 177-73 73-177q0-14-10-25t-25-11h-36q-14 0-25 11t-11 25q0 59-42 101t-101 42-101-42-41-101v-179h410z" horiz-adv-x="642.9" />

<glyph glyph-name="ellipsis" unicode="&#xf141;" d="M214 439v-107q0-22-15-38t-38-15h-107q-23 0-38 15t-16 38v107q0 23 16 38t38 16h107q22 0 38-16t15-38z m286 0v-107q0-22-16-38t-38-15h-107q-22 0-38 15t-15 38v107q0 23 15 38t38 16h107q23 0 38-16t16-38z m286 0v-107q0-22-16-38t-38-15h-107q-22 0-38 15t-16 38v107q0 23 16 38t38 16h107q23 0 38-16t16-38z" horiz-adv-x="785.7" />

<glyph glyph-name="share-square" unicode="&#xf14d;" d="M561 236l196 196q11 11 11 25t-11 25l-196 197q-17 17-39 8-22-10-22-33v-90q-66 0-120-11t-91-28-64-44-42-53-25-61-12-62-3-62q0-101 93-226 6-6 14-6 4 0 7 1 13 5 11 19-25 197 35 264 25 29 72 42t125 13v-89q0-24 22-33 7-3 14-3 14 0 25 11z m296 382v-536q0-66-47-113t-114-48h-535q-67 0-114 48t-47 113v536q0 66 47 113t114 48h535q67 0 114-48t47-113z" horiz-adv-x="857.1" />

<glyph glyph-name="dollar" unicode="&#xf155;" d="M546 189q0-86-56-147t-144-77v-97q0-8-5-13t-13-5h-75q-7 0-13 5t-5 13v97q-37 5-71 18t-57 25-41 26-26 21-10 10q-9 12-1 23l58 76q3 5 12 6 9 1 14-5l1-1q63-55 135-70 21-4 42-4 45 0 79 24t35 68q0 16-9 30t-18 23-33 21-37 18-45 18q-21 9-34 14t-34 15-35 17-32 20-29 24-25 27-20 32-11 37-5 44q0 77 55 135t142 75v100q0 7 5 13t13 5h75q8 0 13-5t5-13v-98q32-3 62-13t48-19 36-20 21-17 9-7q9-11 3-22l-46-81q-4-9-12-9-8-2-15 4-2 2-9 7t-21 14-33 18-42 15-47 6q-53 0-87-24t-33-62q0-14 4-27t17-23 22-18 31-18 34-15 39-15q30-11 45-17t43-20 42-24 34-28 30-35 18-43 7-52z" horiz-adv-x="571.4" />

<glyph glyph-name="file-text" unicode="&#xf15c;" d="M819 584q8-7 16-20h-264v264q13-8 21-16z m-265-91h303v-589q0-23-15-38t-38-16h-750q-23 0-38 16t-16 38v892q0 23 16 38t38 16h446v-304q0-22 16-37t38-16z m89-411v36q0 8-5 13t-13 5h-393q-8 0-13-5t-5-13v-36q0-8 5-13t13-5h393q8 0 13 5t5 13z m0 143v36q0 8-5 13t-13 5h-393q-8 0-13-5t-5-13v-36q0-8 5-13t13-5h393q8 0 13 5t5 13z m0 143v36q0 7-5 12t-13 5h-393q-8 0-13-5t-5-12v-36q0-8 5-13t13-5h393q8 0 13 5t5 13z" horiz-adv-x="857.1" />

<glyph glyph-name="sort-asc" unicode="&#xf160;" d="M411 46q0-6-6-13l-178-178q-5-5-13-5-6 0-12 5l-179 179q-8 9-4 19 4 11 17 11h107v768q0 8 5 13t13 5h107q8 0 13-5t5-13v-768h107q8 0 13-5t5-13z m589-71v-107q0-8-5-13t-13-5h-464q-8 0-13 5t-5 13v107q0 8 5 13t13 5h464q8 0 13-5t5-13z m-107 286v-107q0-8-5-13t-13-5h-357q-8 0-13 5t-5 13v107q0 8 5 13t13 5h357q8 0 13-5t5-13z m-107 285v-107q0-7-5-12t-13-6h-250q-8 0-13 6t-5 12v107q0 8 5 13t13 5h250q8 0 13-5t5-13z m-107 286v-107q0-8-5-13t-13-5h-143q-8 0-13 5t-5 13v107q0 8 5 13t13 5h143q8 0 13-5t5-13z" horiz-adv-x="1000" />

<glyph glyph-name="sort-desc" unicode="&#xf161;" d="M679-25v-107q0-8-5-13t-13-5h-143q-8 0-13 5t-5 13v107q0 8 5 13t13 5h143q8 0 13-5t5-13z m-268 71q0-6-6-13l-178-178q-5-5-13-5-6 0-12 5l-179 179q-8 9-4 19 4 11 17 11h107v768q0 8 5 13t13 5h107q8 0 13-5t5-13v-768h107q8 0 13-5t5-13z m375 215v-107q0-8-5-13t-13-5h-250q-8 0-13 5t-5 13v107q0 8 5 13t13 5h250q8 0 13-5t5-13z m107 285v-107q0-7-5-12t-13-6h-357q-8 0-13 6t-5 12v107q0 8 5 13t13 5h357q8 0 13-5t5-13z m107 286v-107q0-8-5-13t-13-5h-464q-8 0-13 5t-5 13v107q0 8 5 13t13 5h464q8 0 13-5t5-13z" horiz-adv-x="1000" />

<glyph glyph-name="female" unicode="&#xf182;" d="M714 261q0-23-15-38t-38-16q-29 0-45 24l-127 190h-25v-73l138-230q5-8 5-18 0-14-10-25t-26-11h-107v-152q0-25-18-44t-44-18h-89q-26 0-45 18t-18 44v152h-107q-15 0-25 11t-11 25q0 10 5 18l138 230v73h-25l-127-190q-16-24-44-24-23 0-38 16t-16 38q0 16 9 29l143 215q41 59 98 59h214q58 0 99-59l142-215q9-13 9-29z m-232 446q0-52-36-88t-89-37-88 37-37 88 37 89 88 36 89-36 36-89z" horiz-adv-x="714.3" />

<glyph glyph-name="male" unicode="&#xf183;" d="M571 457v-232q0-22-15-38t-38-16-38 16-16 38v196h-35v-509q0-25-19-44t-44-18-44 18-18 44v259h-36v-259q0-25-19-44t-44-18-44 18-18 44v509h-36v-196q0-22-15-38t-38-16-38 16-16 38v232q0 45 31 76t76 31h357q45 0 76-31t31-76z m-160 250q0-52-37-88t-88-37-89 37-36 88 36 89 89 36 88-36 37-89z" horiz-adv-x="571.4" />

<glyph glyph-name="box" unicode="&#xf187;" d="M607 386q0 14-10 25t-26 10h-142q-15 0-25-10t-11-25 11-25 25-11h142q15 0 26 11t10 25z m322 107v-536q0-14-11-25t-25-11h-786q-14 0-25 11t-11 25v536q0 14 11 25t25 11h786q14 0 25-11t11-25z m35 250v-143q0-14-10-25t-25-11h-858q-14 0-25 11t-10 25v143q0 14 10 25t25 11h858q14 0 25-11t10-25z" horiz-adv-x="1000" />

<glyph glyph-name="file-excel" unicode="&#xf1c3;" d="M819 638q16-16 27-42t11-50v-642q0-23-15-38t-38-16h-750q-23 0-38 16t-16 38v892q0 23 16 38t38 16h500q22 0 49-11t42-27z m-248 136v-210h210q-5 17-12 23l-175 175q-6 7-23 12z m215-853v572h-232q-23 0-38 16t-16 37v233h-429v-858h715z m-547 131v-59h157v59h-42l58 90q3 4 5 9t5 8 2 2h1q0-2 3-6 1-2 2-4t3-4 4-5l60-90h-43v-59h163v59h-38l-107 152 108 158h38v59h-156v-59h41l-57-89q-2-4-6-9t-5-8l-1-1h-1q0 2-3 5-3 6-9 13l-59 89h42v59h-162v-59h38l106-152-109-158h-38z" horiz-adv-x="857.1" />

<glyph glyph-name="file-image" unicode="&#xf1c5;" d="M819 638q16-16 27-42t11-50v-642q0-23-15-38t-38-16h-750q-23 0-38 16t-16 38v892q0 23 16 38t38 16h500q22 0 49-11t42-27z m-248 136v-210h210q-5 17-12 23l-175 175q-6 7-23 12z m215-853v572h-232q-23 0-38 16t-16 37v233h-429v-858h715z m-72 250v-178h-571v107l107 107 71-71 215 214z m-464 108q-45 0-76 31t-31 76 31 76 76 31 76-31 31-76-31-76-76-31z" horiz-adv-x="857.1" />

<glyph glyph-name="file-archive" unicode="&#xf1c6;" d="M357 636v71h-71v-71h71z m72-72v72h-72v-72h72z m-72-71v71h-71v-71h71z m72-72v72h-72v-72h72z m390 217q16-16 27-42t11-50v-642q0-23-15-38t-38-16h-750q-23 0-38 16t-16 38v892q0 23 16 38t38 16h500q22 0 49-11t42-27z m-248 136v-210h210q-5 17-12 23l-175 175q-6 7-23 12z m215-853v572h-232q-23 0-38 16t-16 37v233h-71v-72h-72v72h-286v-858h715z m-350 403l60-195q4-15 4-29 0-46-40-77t-103-30-102 30-41 77q0 14 5 29 12 35 67 221v71h71v-71h44q13 0 22-7t13-19z m-79-260q30 0 51 11t21 25-21 25-51 11-50-11-21-25 21-25 50-11z" horiz-adv-x="857.1" />

<glyph glyph-name="file-code" unicode="&#xf1c9;" d="M819 638q16-16 27-42t11-50v-642q0-23-15-38t-38-16h-750q-23 0-38 16t-16 38v892q0 23 16 38t38 16h500q22 0 49-11t42-27z m-248 136v-210h210q-5 17-12 23l-175 175q-6 7-23 12z m215-853v572h-232q-23 0-38 16t-16 37v233h-429v-858h715z m-518 500q4 7 12 7t13-3l28-21q7-5 7-12t-3-13l-102-136 102-136q4-6 3-13t-7-12l-28-21q-6-4-13-4t-12 7l-126 168q-8 11 0 22z m447-167q8-11 0-22l-126-168q-4-6-11-7t-14 4l-28 21q-6 5-7 12t3 13l102 136-102 136q-4 6-3 13t7 12l28 21q6 4 14 3t11-7z m-346-258q-7 1-11 8t-3 13l77 464q1 7 7 11t14 3l35-5q7-2 11-8t3-13l-77-464q-1-7-7-11t-13-3z" horiz-adv-x="857.1" />

<glyph glyph-name="sliders" unicode="&#xf1de;" d="M196 64v-71h-196v71h196z m197 72q14 0 25-11t11-25v-143q0-14-11-25t-25-11h-143q-14 0-25 11t-11 25v143q0 15 11 25t25 11h143z m89 214v-71h-482v71h482z m-357 286v-72h-125v72h125z m732-572v-71h-411v71h411z m-536 643q15 0 26-10t10-26v-142q0-15-10-25t-26-11h-142q-15 0-25 11t-11 25v142q0 15 11 26t25 10h142z m358-286q14 0 25-10t10-25v-143q0-15-10-25t-25-11h-143q-15 0-25 11t-11 25v143q0 14 11 25t25 10h143z m178-71v-71h-125v71h125z m0 286v-72h-482v72h482z" horiz-adv-x="857.1" />

<glyph glyph-name="share-squared" unicode="&#xf1e1;" d="M714 183q0 49-35 84t-84 36q-46 0-80-33l-135 67q1 9 1 13t-1 13l135 67q34-33 80-33 50 0 84 36t35 84-35 84-84 35-84-35-35-84q0-4 1-13l-134-67q-35 32-81 32-49 0-84-35t-35-84 35-84 84-35q46 0 81 32l134-67q-1-9-1-13 0-49 35-84t84-35 84 35 35 84z m143 435v-536q0-66-47-113t-114-48h-535q-67 0-114 48t-47 113v536q0 66 47 113t114 48h535q67 0 114-48t47-113z" horiz-adv-x="857.1" />

<glyph glyph-name="newspaper" unicode="&#xf1ea;" d="M571 564h-214v-214h214v214z m72-357v-71h-357v71h357z m0 429v-357h-357v357h357z m357-429v-71h-286v71h286z m0 143v-71h-286v71h286z m0 143v-72h-286v72h286z m0 143v-72h-286v72h286z m-857-536v536h-72v-536q0-14 11-25t25-11 25 11 11 25z m928 0v607h-857v-607q0-18-6-36h828q14 0 25 11t10 25z m72 679v-679q0-45-31-76t-76-31h-929q-44 0-76 31t-31 76v607h143v72h1000z" horiz-adv-x="1142.9" />

<glyph glyph-name="cc-visa" unicode="&#xf1f0;" d="M1102 298h-77q8 20 37 99l2 6q2 5 5 14t5 15l7-31z m-806 36l-32 164q-6 31-42 31h-149l-2-8q174-44 225-187z m100 195l-90-245-10 50q-14 39-47 72t-73 50l75-285h98l145 358h-98z m78-359h92l58 359h-92z m428 350q-38 15-83 15-68 0-112-33t-44-86q-1-56 81-97 27-12 37-23t11-21q0-17-17-26t-38-9q-48 0-87 19l-13 6-13-81q42-19 104-19 72 0 116 33t45 90q0 59-78 97-27 14-40 23t-12 21q0 13 14 22t39 9q39 1 69-13l9-5z m238 9h-72q-36 0-48-31l-138-328h97l20 54h118q3-12 11-54h86z m146 178v-714q0-29-21-50t-51-22h-1143q-29 0-50 22t-21 50v714q0 29 21 50t50 22h1143q29 0 51-22t21-50z" horiz-adv-x="1285.7" />

<glyph glyph-name="cc-mastercard" unicode="&#xf1f1;" d="M624 660q-71 47-156 47-58 0-111-22t-90-61-61-90-22-110q0-58 22-111t61-90 90-61 111-22q85 0 156 47-73 60-99 148t0 177 99 148z m19-14q-70-55-96-139t0-168 96-139q71 56 96 139t0 168-96 139z m18 14q73-60 99-148t1-177-100-148q72-47 157-47 58 0 111 22t90 61 61 90 22 111q0 57-22 110t-61 90-91 61-110 22q-85 0-157-47z m414-403h4v2h-10v-2h4v-10h2v10z m16-10h2v12h-3l-3-8-3 8h-3v-12h2v9l3-8h2l3 8v-9z m-4-245v-1h-3v1h3v0z m0-5h1l-2 3h1l1 0q0 1 0 2t0 2l-1 0h-5v-7h2v3h0z m-705 38q0 10 6 17t17 7q10 0 16-7t7-17q0-11-7-18t-16-6q-10 0-17 6t-6 18z m264 24q17 0 20-18h-39q3 18 19 18z m199-24q0 10 6 17t16 7 17-7 6-17q0-11-6-18t-17-6q-10 0-16 6t-6 18z m152 0q0 10 6 17t17 7 16-7 6-17q0-11-6-18t-16-6-17 7-6 17z m88-41q-1 0-2 1-1 0-2 1t-1 2q-1 1-1 2 0 2 1 2 0 2 1 3l1 0q1 0 1 1 1 0 2 0 2 0 2 0l2-1 1-3v0q1-1 1-2l-1 0v-2t0-1l-1-1q-1-1-2-1 0-1-2-1z m-751 3h17v47q0 14-8 22t-22 8q-18 0-26-13-8 13-25 13-14 0-22-11v9h-17v-75h17v42q0 20 18 20 17 0 17-20v-42h16v42q0 20 19 20 16 0 16-20v-42z m93 0h16v75h-16v-9q-10 11-24 11-16 0-27-11t-10-28 10-29 27-11q16 0 24 11v-9z m99 23q0 19-26 22l-8 1q-13 2-13 8 0 8 14 8 13 0 24-6l7 14q-12 7-31 7-14 0-23-6t-8-18q0-19 26-22l8-1q13-2 13-8 0-9-17-9-14 0-25 7l-8-12q14-10 33-10 16 0 25 7t9 18z m73-19l-5 14q-7-4-14-4-11 0-11 12v34h27v15h-27v23h-16v-23h-16v-15h16v-34q0-28 26-28 11 0 20 6z m48 73q-16 0-27-11t-11-28q0-18 11-29t28-11q18 0 31 11l-8 12q-10-8-22-8-19 0-23 18h57v7q0 18-11 28t-25 11z m89 0q-13 0-20-11v9h-17v-75h17v42q0 20 16 20 6 0 10-2l5 15q-5 2-11 2z m16-39q0-18 11-29t29-11q17 0 27 9l-8 13q-10-7-19-6-10 0-17 6t-6 18 6 17 17 7q11 0 19-7l8 13q-11 9-27 9-18 0-29-11t-11-28z m137-38h17v75h-17v-9q-8 11-23 11-17 0-28-11t-10-28 10-29 28-11q15 0 23 11v-9z m74 77q-13 0-19-11v9h-16v-75h16v42q0 20 16 20 5 0 10-2l5 15q-5 2-12 2z m78-77h17v106h-17v-40q-8 11-24 11t-26-11-11-28 11-28 26-12q17 0 24 11v-9z m44 11l-1-1h-2q-1 0-2-1-2-1-2-2 0-2 0-4 0-2 0-3 0-1 2-2 1-1 2-2t3 0q2 0 3 0 0 1 1 1l1 1q1 1 2 2 1 1 1 3 0 2-1 4 0 0-2 2 0 0-1 1l-1 0q0 0-1 1t-2 0z m201 699v-714q0-29-21-50t-51-22h-1143q-29 0-50 22t-21 50v714q0 29 21 50t50 22h1143q29 0 51-22t21-50z" horiz-adv-x="1285.7" />

<glyph glyph-name="cc-discover" unicode="&#xf1f2;" d="M175 416q0-28-20-46-17-15-50-15h-10v123h10q34 0 50-15 20-18 20-47z m991 37q0-29-36-29h-11v56h12q35 0 35-27z m-954-37q0 42-28 68t-72 26h-53v-186h53q42 0 67 21 33 28 33 71z m17-92h36v186h-36v-186z m178 56q0 23-11 35t-42 23q-16 6-22 11t-6 13q0 9 7 14t20 6q16 0 29-15l19 25q-23 20-54 20-25 0-42-15t-16-38q0-19 10-31t35-20q21-7 25-11 11-6 11-18 0-12-8-19t-20-8q-27 0-39 25l-24-22q25-36 64-36 29 0 47 17t17 44z m156-50v43q-21-21-44-21-27 0-45 18t-17 46q0 27 17 46t43 19q24 0 46-22v43q-23 12-45 12-41 0-70-29t-29-69 29-68 69-29q24 0 46 11z m687-337v294q-36-22-81-47t-132-65-184-77-233-75-281-66h875q15 0 25 11t11 25z m-475 422q0 42-29 72t-72 29-71-29-30-72 30-71 71-30 72 30 29 71z m85-96l80 191h-39l-51-125-49 125h-40l79-191h20z m97 5h102v31h-66v50h64v32h-64v41h66v32h-102v-186z m218 0h44l-58 78q42 9 42 52 0 27-17 41t-49 15h-54v-186h36v74h5z m111 380v-708q0-31-22-53t-52-22h-1138q-31 0-52 22t-22 53v708q0 31 22 53t52 22h1138q31 0 52-22t22-53z" horiz-adv-x="1285.7" />

<glyph glyph-name="cc-amex" unicode="&#xf1f3;" d="M66 469h50l-25 61z m347-293l41 44-39 44h-91v-27h80v-31h-80v-30h89z m88 43l55-61v121z m161 27q0 18-22 18h-47v-38h46q23 0 23 20z m161 2q0 16-23 16h-46v-34h45q24 0 24 18z m-155 260q0 16-23 16h-46v-33h45q24 0 24 17z m256-39h50l-25 61z m-534 87v-151h-37v118l-52-118h-32l-52 118v-118h-74l-14 33h-75l-14-33h-39l64 151h54l61-143v143h59l48-103 43 103h60z m310-310q0-11-3-20t-7-14-13-9-15-6-17-2-18-1-18 1-16 0v-51h-71l-44 50-47-50h-142v151h145l44-49 46 49h116q60 0 60-49z m-162 190v-31h-121v151h121v-32h-85v-27h83v-31h-83v-30h85z m748-312v-128q0-31-22-53t-52-22h-1138q-31 0-52 22t-22 53v379h62l14 34h31l14-34h121v25l11-25h63l11 26v-26h302v55l6 0q5 0 5-7v-48h156v12q13-6 31-10t29-3 35 0 29 1l14 34h31l14-34h127v32l18-32h102v211h-100v-25l-14 25h-104v-25l-12 25h-139q-39 0-61-13v13h-96v-13q-14 13-41 13h-350l-24-55-24 55h-111v-25l-12 25h-94l-44-100v218q0 31 22 53t52 22h1138q31 0 52-22t22-53v-379h-67q-29 0-45-12v12h-99q-31 0-44-12v12h-176v-12q-17 12-49 12h-116v-12q-13 12-51 12h-131l-30-32-28 32h-194v-210h191l31 32 29-32h117v49h12q33 0 50 7v-56h98v55h4q4 0 6-1t1-6v-48h295q32 0 49 13v-13h94q33 0 53 9z m-423 131q0-13-7-24t-19-17q14-5 19-14t5-26v-30h-36v25q0 19-7 25t-26 5h-38v-55h-36v151h86q26 0 43-8t16-32z m-155 260q0-13-7-24t-18-17q14-5 19-14t5-26v-29h-37q0 5 1 15t0 13-2 11-5 9-10 4-16 2h-39v-54h-36v151l85-1q28 0 44-8t16-32z m295-340v-31h-120v151h120v-31h-84v-27h83v-31h-83v-30z m-237 381v-151h-37v151h37z m386-364q0-48-57-48h-70v33h70q19 0 19 13 0 9-9 12t-23 3-28 2-23 12-10 31q0 22 15 34t37 11h72v-31h-66q-20 0-20-14 0-9 9-12t24-2 27-1 24-12 9-31z m134 28v-56q-14-20-49-20h-70v33h70q18 0 18 13 0 8-7 11t-17 3-23 1-22 5-17 13-7 27q0 22 15 34t37 11h72v-31h-66q-20 0-20-14 0-12 16-13t38-2 32-15z m-92 335v-150h-52l-68 113v-113h-73l-15 33h-75l-14-33h-41q-72 0-72 74 0 77 74 77h35v-33q-4 0-16 1t-16 0-12-1-12-4-9-7-6-13-2-19q0-21 8-32t28-11h16l51 118h54l61-142v142h55l64-105v105h37z" horiz-adv-x="1285.7" />

<glyph glyph-name="trash" unicode="&#xf1f8;" d="M286 82v393q0 8-5 13t-13 5h-36q-8 0-13-5t-5-13v-393q0-8 5-13t13-5h36q8 0 13 5t5 13z m143 0v393q0 8-5 13t-13 5h-36q-8 0-13-5t-5-13v-393q0-8 5-13t13-5h36q8 0 13 5t5 13z m142 0v393q0 8-5 13t-12 5h-36q-8 0-13-5t-5-13v-393q0-8 5-13t13-5h36q7 0 12 5t5 13z m-303 554h250l-27 65q-4 5-9 6h-177q-6-1-10-6z m518-18v-36q0-8-5-13t-13-5h-54v-529q0-46-26-80t-63-34h-464q-37 0-63 33t-27 79v531h-53q-8 0-13 5t-5 13v36q0 8 5 13t13 5h172l39 93q9 21 31 35t44 15h178q23 0 44-15t30-35l39-93h173q8 0 13-5t5-13z" horiz-adv-x="785.7" />

<glyph glyph-name="toggle-off" unicode="&#xf204;" d="M643 350q0 58-23 111t-61 91-91 61-111 23-111-23-91-61-61-91-23-111 23-111 61-91 91-61 111-23 111 23 91 61 61 91 23 111z m428 0q0 58-22 111t-61 91-91 61-111 23h-216q67-50 106-125t38-161-38-161-106-125h216q58 0 111 23t91 61 61 91 22 111z m72 0q0-72-29-139t-76-113-114-77-138-28h-429q-72 0-138 28t-114 77-76 113-29 139 29 139 76 114 114 76 138 28h429q72 0 138-28t114-76 76-114 29-139z" horiz-adv-x="1142.9" />

<glyph glyph-name="toggle-on" unicode="&#xf205;" d="M0 350q0 73 29 139t76 114 114 76 138 28h429q72 0 138-28t114-76 76-114 29-139-29-139-76-113-114-77-138-28h-429q-72 0-138 28t-114 77-76 113-29 139z m786-286q58 0 111 23t91 61 61 91 22 111-22 111-61 91-91 61-111 23-111-23-91-61-61-91-23-111 23-111 61-91 91-61 111-23z" horiz-adv-x="1142.9" />

<glyph glyph-name="cart-arrow-down" unicode="&#xf218;" d="M714 457q0 15-10 25t-25 11-25-11l-83-81v163q0 15-10 25t-25 11-25-11-11-25v-163l-82 81q-11 11-25 11t-25-11-11-25 11-25l143-143q10-10 25-10t25 10l143 143q10 11 10 25z m-357-464q0-30-21-51t-50-21-51 21-21 51 21 50 51 21 50-21 21-50z m500 0q0-30-21-51t-50-21-51 21-21 51 21 50 51 21 50-21 21-50z m72 607v-286q0-13-9-23t-23-12l-583-68q1-4 3-12t3-15 1-13q0-8-13-35h513q15 0 26-11t10-25-10-25-26-11h-571q-14 0-25 11t-11 25q0 8 6 22t17 33 11 22l-98 459h-114q-15 0-25 10t-11 25 11 26 25 10h143q9 0 16-3t11-9 7-14 4-15 3-16 3-14h670q14 0 25-11t11-25z" horiz-adv-x="928.6" />

<glyph glyph-name="commenting-o" unicode="&#xf27b;" d="M357 350q0-30-21-50t-50-21-51 21-21 50 21 51 51 20 50-20 21-51z m214 0q0-30-20-50t-51-21-50 21-21 50 21 51 50 20 51-20 20-51z m215 0q0-30-21-50t-51-21-50 21-21 50 21 51 50 20 51-20 21-51z m-286 286q-114 0-213-39t-157-105-59-142q0-62 40-119t113-98l48-28-15-53q-13-51-39-97 85 36 154 96l24 21 32-3q38-5 72-5 114 0 213 39t157 105 59 142-59 142-157 105-213 39z m500-286q0-97-67-179t-182-130-251-48q-39 0-81 4-110-97-257-135-27-8-63-12h-3q-8 0-15 6t-9 15v1q-2 2 0 6t1 6 2 5l4 5t4 5 4 5q4 5 17 19t20 22 17 22 18 28 15 33 15 42q-88 50-138 123t-51 157q0 73 40 139t106 114 160 76 194 28 194-28 160-76 106-114 40-139z" horiz-adv-x="1000" />

<glyph glyph-name="forms" unicode="&#xf298;" d="M287 342v-72h-140v72h140z m0 142v-71h-140v71h140z m423-285v-72h-190v72h190z m0 143v-72h-375v72h375z m0 142v-71h-375v71h375z m76-480v692q0 4-4 8t-7 3h-18l-211-143-117 96-118-96-211 143h-17q-5 0-8-3t-4-8v-692q0-4 4-8t8-3h692q4 0 7 3t4 8z m-477 619l103 84h-227z m240 0l123 84h-227z m308 73v-692q0-35-24-59t-58-24h-692q-35 0-59 24t-24 59v692q0 35 24 59t59 24h692q34 0 58-24t24-59z" horiz-adv-x="857.1" />

<glyph glyph-name="blogger" unicode="&#xf314;" d="M550 850l-300-1c-128-18-237-97-246-231-3-13-2-25-2-37-2-59-1-122-1-182 1-96-2-173 0-244 1-209 124-307 348-302 55 1 119 1 192-1 72-1 128-5 177 2 221 31 264 179 273 299l0 137c-6 140-108 178-194 181 9 35 12 82 3 146-10 124-98 221-250 233z m-251-187l245 0c135-18 129-164 0-185l-245 0c-135 18-129 164 0 185z m-56-404l450-2c136-17 136-183 5-203l-450 2c-139 17-137 183-5 203z" horiz-adv-x="991" />
</font>
</defs>
</svg>